CalibrationOct2023/100623s1c1b1_0.csv

"Record Length",5000,"Points",-4.23999988e-006,           0
"Sample Interval",7.99999977e-009,s,-4.23199988e-006,        0.04
"Trigger Point",530,"Samples",-4.22399988e-006,           0
"Trigger Time",1.83915764e-009,s,-4.21599988e-006,       -0.04
"",,,-4.20799988e-006,       -0.04
"Horizontal Offset",-4.23999988e-006,s,-4.19999988e-006,       -0.08
,,,-4.19199988e-006,           0
,,,-4.18399988e-006,       -0.04
,,,-4.17599988e-006,        0.04
,,,-4.16799988e-006,           0
,,,-4.15999988e-006,        0.04
,,,-4.15199988e-006,       -0.04
,,,-4.14399988e-006,       -0.04
,,,-4.13599988e-006,           0
,,,-4.12799988e-006,           0
,,,-4.11999988e-006,           0
,,,-4.11199988e-006,       -0.04
,,,-4.10399988e-006,       -0.04
,,,-4.09599988e-006,           0
,,,-4.08799988e-006,       -0.04
,,,-4.07999988e-006,        0.04
,,,-4.07199988e-006,       -0.04
,,,-4.06399989e-006,       -0.04
,,,-4.05599989e-006,        0.04
,,,-4.04799989e-006,        0.04
,,,-4.03999989e-006,        0.04
,,,-4.03199989e-006,        0.04
,,,-4.02399989e-006,       -0.04
,,,-4.01599989e-006,           0
,,,-4.00799989e-006,           0
,,,-3.99999989e-006,           0
,,,-3.99199989e-006,       -0.08
,,,-3.98399989e-006,       -0.04
,,,-3.97599989e-006,       -0.04
,,,-3.96799989e-006,        0.04
,,,-3.95999989e-006,        0.04
,,,-3.95199989e-006,        0.04
,,,-3.94399989e-006,        0.04
,,,-3.93599989e-006,       -0.04
,,,-3.92799989e-006,           0
,,,-3.91999989e-006,           0
,,,-3.91199989e-006,           0
,,,-3.90399989e-006,       -0.04
,,,-3.89599989e-006,        0.04
,,,-3.88799989e-006,        0.04
,,,-3.87999989e-006,       -0.04
,,,-3.87199989e-006,       -0.04
,,,-3.86399989e-006,           0
,,,-3.85599989e-006,        0.04
,,,-3.84799989e-006,           0
,,,-3.83999989e-006,           0
,,,-3.83199989e-006,           0
,,,-3.82399989e-006,           0
,,,-3.81599989e-006,        0.04
,,,-3.80799989e-006,       -0.04
,,,-3.79999989e-006,           0
,,,-3.79199989e-006,        0.04
,,,-3.78399989e-006,           0
,,,-3.77599989e-006,       -0.08
,,,-3.76799989e-006,        0.04
,,,-3.75999989e-006,           0
,,,-3.75199989e-006,        0.04
,,,-3.74399989e-006,        0.04
,,,-3.73599989e-006,        0.08
,,,-3.72799989e-006,       -0.08
,,,-3.71999989e-006,           0
,,,-3.7119999e-006,       -0.04
,,,-3.7039999e-006,        0.04
,,,-3.6959999e-006,           0
,,,-3.6879999e-006,       -0.08
,,,-3.6799999e-006,           0
,,,-3.6719999e-006,        0.04
,,,-3.6639999e-006,        0.04
,,,-3.6559999e-006,       -0.04
,,,-3.6479999e-006,        0.04
,,,-3.6399999e-006,           0
,,,-3.6319999e-006,           0
,,,-3.6239999e-006,       -0.04
,,,-3.6159999e-006,        0.04
,,,-3.6079999e-006,           0
,,,-3.5999999e-006,           0
,,,-3.5919999e-006,       -0.04
,,,-3.5839999e-006,           0
,,,-3.5759999e-006,        0.04
,,,-3.5679999e-006,        0.04
,,,-3.5599999e-006,       -0.04
,,,-3.5519999e-006,       -0.08
,,,-3.5439999e-006,        0.04
,,,-3.5359999e-006,        0.04
,,,-3.5279999e-006,           0
,,,-3.5199999e-006,        0.04
,,,-3.5119999e-006,        0.04
,,,-3.5039999e-006,       -0.04
,,,-3.4959999e-006,           0
,,,-3.4879999e-006,           0
,,,-3.4799999e-006,       -0.04
,,,-3.4719999e-006,           0
,,,-3.4639999e-006,       -0.04
,,,-3.4559999e-006,        0.04
,,,-3.4479999e-006,       -0.04
,,,-3.4399999e-006,       -0.08
,,,-3.4319999e-006,           0
,,,-3.4239999e-006,        0.04
,,,-3.4159999e-006,           0
,,,-3.4079999e-006,           0
,,,-3.3999999e-006,       -0.04
,,,-3.3919999e-006,           0
,,,-3.3839999e-006,           0
,,,-3.3759999e-006,           0
,,,-3.3679999e-006,       -0.04
,,,-3.3599999e-006,           0
,,,-3.35199991e-006,       -0.04
,,,-3.34399991e-006,           0
,,,-3.33599991e-006,           0
,,,-3.32799991e-006,        0.04
,,,-3.31999991e-006,       -0.04
,,,-3.31199991e-006,           0
,,,-3.30399991e-006,           0
,,,-3.29599991e-006,           0
,,,-3.28799991e-006,        0.04
,,,-3.27999991e-006,        0.04
,,,-3.27199991e-006,           0
,,,-3.26399991e-006,           0
,,,-3.25599991e-006,        0.04
,,,-3.24799991e-006,        0.04
,,,-3.23999991e-006,        0.04
,,,-3.23199991e-006,        0.04
,,,-3.22399991e-006,           0
,,,-3.21599991e-006,           0
,,,-3.20799991e-006,           0
,,,-3.19999991e-006,       -0.04
,,,-3.19199991e-006,       -0.04
,,,-3.18399991e-006,       -0.04
,,,-3.17599991e-006,           0
,,,-3.16799991e-006,           0
,,,-3.15999991e-006,       -0.04
,,,-3.15199991e-006,        0.04
,,,-3.14399991e-006,       -0.04
,,,-3.13599991e-006,       -0.04
,,,-3.12799991e-006,       -0.04
,,,-3.11999991e-006,           0
,,,-3.11199991e-006,       -0.04
,,,-3.10399991e-006,           0
,,,-3.09599991e-006,        0.08
,,,-3.08799991e-006,       -0.04
,,,-3.07999991e-006,           0
,,,-3.07199991e-006,       -0.04
,,,-3.06399991e-006,       -0.04
,,,-3.05599991e-006,           0
,,,-3.04799991e-006,           0
,,,-3.03999991e-006,       -0.04
,,,-3.03199991e-006,           0
,,,-3.02399991e-006,           0
,,,-3.01599991e-006,       -0.08
,,,-3.00799991e-006,       -0.04
,,,-2.99999992e-006,           0
,,,-2.99199992e-006,           0
,,,-2.98399992e-006,           0
,,,-2.97599992e-006,        0.04
,,,-2.96799992e-006,           0
,,,-2.95999992e-006,       -0.04
,,,-2.95199992e-006,           0
,,,-2.94399992e-006,           0
,,,-2.93599992e-006,           0
,,,-2.92799992e-006,       -0.04
,,,-2.91999992e-006,           0
,,,-2.91199992e-006,           0
,,,-2.90399992e-006,        0.04
,,,-2.89599992e-006,       -0.08
,,,-2.88799992e-006,       -0.04
,,,-2.87999992e-006,        0.04
,,,-2.87199992e-006,        0.04
,,,-2.86399992e-006,           0
,,,-2.85599992e-006,       -0.08
,,,-2.84799992e-006,           0
,,,-2.83999992e-006,           0
,,,-2.83199992e-006,        0.04
,,,-2.82399992e-006,        0.04
,,,-2.81599992e-006,        0.04
,,,-2.80799992e-006,       -0.04
,,,-2.79999992e-006,       -0.04
,,,-2.79199992e-006,        0.04
,,,-2.78399992e-006,           0
,,,-2.77599992e-006,       -0.04
,,,-2.76799992e-006,       -0.04
,,,-2.75999992e-006,           0
,,,-2.75199992e-006,       -0.04
,,,-2.74399992e-006,           0
,,,-2.73599992e-006,           0
,,,-2.72799992e-006,       -0.08
,,,-2.71999992e-006,           0
,,,-2.71199992e-006,       -0.04
,,,-2.70399992e-006,           0
,,,-2.69599992e-006,           0
,,,-2.68799992e-006,        0.04
,,,-2.67999992e-006,        0.04
,,,-2.67199992e-006,           0
,,,-2.66399992e-006,           0
,,,-2.65599992e-006,           0
,,,-2.64799993e-006,           0
,,,-2.63999993e-006,           0
,,,-2.63199993e-006,        0.04
,,,-2.62399993e-006,       -0.04
,,,-2.61599993e-006,           0
,,,-2.60799993e-006,        0.04
,,,-2.59999993e-006,        0.04
,,,-2.59199993e-006,       -0.08
,,,-2.58399993e-006,        0.04
,,,-2.57599993e-006,           0
,,,-2.56799993e-006,        0.04
,,,-2.55999993e-006,        0.04
,,,-2.55199993e-006,           0
,,,-2.54399993e-006,       -0.08
,,,-2.53599993e-006,           0
,,,-2.52799993e-006,        0.04
,,,-2.51999993e-006,           0
,,,-2.51199993e-006,           0
,,,-2.50399993e-006,        0.04
,,,-2.49599993e-006,        0.04
,,,-2.48799993e-006,           0
,,,-2.47999993e-006,       -0.08
,,,-2.47199993e-006,           0
,,,-2.46399993e-006,           0
,,,-2.45599993e-006,           0
,,,-2.44799993e-006,        0.04
,,,-2.43999993e-006,        0.04
,,,-2.43199993e-006,           0
,,,-2.42399993e-006,        0.04
,,,-2.41599993e-006,       -0.04
,,,-2.40799993e-006,           0
,,,-2.39999993e-006,           0
,,,-2.39199993e-006,       -0.04
,,,-2.38399993e-006,        0.04
,,,-2.37599993e-006,           0
,,,-2.36799993e-006,       -0.04
,,,-2.35999993e-006,           0
,,,-2.35199993e-006,       -0.04
,,,-2.34399993e-006,           0
,,,-2.33599993e-006,        0.04
,,,-2.32799993e-006,           0
,,,-2.31999993e-006,           0
,,,-2.31199993e-006,       -0.04
,,,-2.30399993e-006,        0.04
,,,-2.29599994e-006,           0
,,,-2.28799994e-006,        0.04
,,,-2.27999994e-006,        0.04
,,,-2.27199994e-006,       -0.04
,,,-2.26399994e-006,           0
,,,-2.25599994e-006,           0
,,,-2.24799994e-006,       -0.04
,,,-2.23999994e-006,       -0.04
,,,-2.23199994e-006,       -0.04
,,,-2.22399994e-006,        0.08
,,,-2.21599994e-006,        0.04
,,,-2.20799994e-006,       -0.04
,,,-2.19999994e-006,           0
,,,-2.19199994e-006,           0
,,,-2.18399994e-006,           0
,,,-2.17599994e-006,       -0.04
,,,-2.16799994e-006,           0
,,,-2.15999994e-006,           0
,,,-2.15199994e-006,           0
,,,-2.14399994e-006,        0.04
,,,-2.13599994e-006,       -0.04
,,,-2.12799994e-006,       -0.04
,,,-2.11999994e-006,       -0.04
,,,-2.11199994e-006,       -0.04
,,,-2.10399994e-006,           0
,,,-2.09599994e-006,           0
,,,-2.08799994e-006,           0
,,,-2.07999994e-006,       -0.04
,,,-2.07199994e-006,        0.04
,,,-2.06399994e-006,           0
,,,-2.05599994e-006,           0
,,,-2.04799994e-006,        0.04
,,,-2.03999994e-006,       -0.04
,,,-2.03199994e-006,           0
,,,-2.02399994e-006,           0
,,,-2.01599994e-006,       -0.04
,,,-2.00799994e-006,       -0.04
,,,-1.99999994e-006,           0
,,,-1.99199994e-006,       -0.04
,,,-1.98399994e-006,       -0.04
,,,-1.97599994e-006,           0
,,,-1.96799994e-006,           0
,,,-1.95999994e-006,       -0.04
,,,-1.95199994e-006,        0.04
,,,-1.94399995e-006,           0
,,,-1.93599995e-006,        0.04
,,,-1.92799995e-006,           0
,,,-1.91999995e-006,        0.04
,,,-1.91199995e-006,       -0.04
,,,-1.90399995e-006,           0
,,,-1.89599995e-006,           0
,,,-1.88799995e-006,           0
,,,-1.87999995e-006,        0.04
,,,-1.87199995e-006,       -0.04
,,,-1.86399995e-006,       -0.08
,,,-1.85599995e-006,       -0.12
,,,-1.84799995e-006,       -0.16
,,,-1.83999995e-006,        -0.2
,,,-1.83199995e-006,       -0.16
,,,-1.82399995e-006,       -0.16
,,,-1.81599995e-006,       -0.24
,,,-1.80799995e-006,       -0.36
,,,-1.79999995e-006,       -0.36
,,,-1.79199995e-006,       -0.32
,,,-1.78399995e-006,        -0.4
,,,-1.77599995e-006,       -0.44
,,,-1.76799995e-006,       -0.52
,,,-1.75999995e-006,       -0.44
,,,-1.75199995e-006,       -0.52
,,,-1.74399995e-006,       -0.52
,,,-1.73599995e-006,       -0.56
,,,-1.72799995e-006,       -0.64
,,,-1.71999995e-006,        -0.6
,,,-1.71199995e-006,       -0.64
,,,-1.70399995e-006,       -0.76
,,,-1.69599995e-006,       -0.72
,,,-1.68799995e-006,       -0.76
,,,-1.67999995e-006,       -0.72
,,,-1.67199995e-006,       -0.84
,,,-1.66399995e-006,       -0.92
,,,-1.65599995e-006,       -0.88
,,,-1.64799995e-006,       -0.84
,,,-1.63999995e-006,       -0.92
,,,-1.63199995e-006,       -0.96
,,,-1.62399995e-006,       -0.92
,,,-1.61599995e-006,       -1.04
,,,-1.60799995e-006,       -1.08
,,,-1.59999995e-006,       -1.08
,,,-1.59199995e-006,       -1.12
,,,-1.58399996e-006,       -1.16
,,,-1.57599996e-006,       -1.16
,,,-1.56799996e-006,        -1.2
,,,-1.55999996e-006,        -1.2
,,,-1.55199996e-006,       -1.24
,,,-1.54399996e-006,       -1.24
,,,-1.53599996e-006,       -1.32
,,,-1.52799996e-006,       -1.28
,,,-1.51999996e-006,       -1.32
,,,-1.51199996e-006,       -1.32
,,,-1.50399996e-006,        -1.4
,,,-1.49599996e-006,       -1.44
,,,-1.48799996e-006,       -1.44
,,,-1.47999996e-006,       -1.44
,,,-1.47199996e-006,       -1.52
,,,-1.46399996e-006,       -1.52
,,,-1.45599996e-006,       -1.52
,,,-1.44799996e-006,       -1.56
,,,-1.43999996e-006,       -1.64
,,,-1.43199996e-006,        -1.6
,,,-1.42399996e-006,        -1.6
,,,-1.41599996e-006,       -1.64
,,,-1.40799996e-006,       -1.72
,,,-1.39999996e-006,       -1.72
,,,-1.39199996e-006,       -1.72
,,,-1.38399996e-006,        -1.8
,,,-1.37599996e-006,       -1.76
,,,-1.36799996e-006,       -1.84
,,,-1.35999996e-006,       -1.84
,,,-1.35199996e-006,       -1.84
,,,-1.34399996e-006,       -1.92
,,,-1.33599996e-006,       -1.96
,,,-1.32799996e-006,       -1.92
,,,-1.31999996e-006,       -1.92
,,,-1.31199996e-006,       -1.96
,,,-1.30399996e-006,          -2
,,,-1.29599996e-006,       -2.04
,,,-1.28799996e-006,       -2.04
,,,-1.27999996e-006,       -2.04
,,,-1.27199996e-006,       -2.12
,,,-1.26399996e-006,       -2.04
,,,-1.25599996e-006,       -2.12
,,,-1.24799996e-006,       -2.04
,,,-1.23999996e-006,       -2.16
,,,-1.23199997e-006,       -2.12
,,,-1.22399997e-006,       -2.16
,,,-1.21599997e-006,        -2.2
,,,-1.20799997e-006,       -2.24
,,,-1.19999997e-006,        -2.2
,,,-1.19199997e-006,        -2.2
,,,-1.18399997e-006,       -2.24
,,,-1.17599997e-006,       -2.28
,,,-1.16799997e-006,       -2.28
,,,-1.15999997e-006,       -2.32
,,,-1.15199997e-006,       -2.36
,,,-1.14399997e-006,       -2.32
,,,-1.13599997e-006,       -2.36
,,,-1.12799997e-006,       -2.32
,,,-1.11999997e-006,       -2.32
,,,-1.11199997e-006,        -2.4
,,,-1.10399997e-006,       -2.36
,,,-1.09599997e-006,        -2.4
,,,-1.08799997e-006,       -2.44
,,,-1.07999997e-006,       -2.44
,,,-1.07199997e-006,       -2.44
,,,-1.06399997e-006,       -2.48
,,,-1.05599997e-006,       -2.44
,,,-1.04799997e-006,       -2.48
,,,-1.03999997e-006,       -2.52
,,,-1.03199997e-006,       -2.48
,,,-1.02399997e-006,       -2.56
,,,-1.01599997e-006,       -2.48
,,,-1.00799997e-006,       -2.48
,,,-9.99999972e-007,       -2.52
,,,-9.91999972e-007,       -2.52
,,,-9.83999972e-007,       -2.56
,,,-9.75999972e-007,       -2.48
,,,-9.67999973e-007,       -2.52
,,,-9.59999973e-007,       -2.64
,,,-9.51999973e-007,        -2.6
,,,-9.43999973e-007,        -2.6
,,,-9.35999974e-007,        -2.6
,,,-9.27999974e-007,        -2.6
,,,-9.19999974e-007,       -2.64
,,,-9.11999974e-007,       -2.64
,,,-9.03999974e-007,        -2.6
,,,-8.95999975e-007,        -2.6
,,,-8.87999975e-007,        -2.6
,,,-8.79999975e-007,        -2.6
,,,-8.71999975e-007,       -2.64
,,,-8.63999976e-007,       -2.64
,,,-8.55999976e-007,       -2.64
,,,-8.47999976e-007,       -2.64
,,,-8.39999976e-007,       -2.64
,,,-8.31999976e-007,       -2.68
,,,-8.23999977e-007,       -2.68
,,,-8.15999977e-007,       -2.64
,,,-8.07999977e-007,       -2.72
,,,-7.99999977e-007,       -2.68
,,,-7.91999978e-007,       -2.64
,,,-7.83999978e-007,       -2.68
,,,-7.75999978e-007,       -2.68
,,,-7.67999978e-007,       -2.64
,,,-7.59999979e-007,       -2.68
,,,-7.51999979e-007,        -2.6
,,,-7.43999979e-007,        -2.6
,,,-7.35999979e-007,       -2.64
,,,-7.27999979e-007,       -2.64
,,,-7.1999998e-007,       -2.68
,,,-7.1199998e-007,       -2.68
,,,-7.0399998e-007,       -2.64
,,,-6.9599998e-007,        -2.6
,,,-6.87999981e-007,       -2.64
,,,-6.79999981e-007,        -2.6
,,,-6.71999981e-007,       -2.64
,,,-6.63999981e-007,        -2.6
,,,-6.55999981e-007,        -2.6
,,,-6.47999982e-007,        -2.6
,,,-6.39999982e-007,        -2.6
,,,-6.31999982e-007,        -2.6
,,,-6.23999982e-007,       -2.56
,,,-6.15999983e-007,       -2.48
,,,-6.07999983e-007,       -2.52
,,,-5.99999983e-007,       -2.56
,,,-5.91999983e-007,       -2.52
,,,-5.83999983e-007,       -2.52
,,,-5.75999984e-007,       -2.52
,,,-5.67999984e-007,       -2.52
,,,-5.59999984e-007,       -2.52
,,,-5.51999984e-007,       -2.48
,,,-5.43999985e-007,       -2.48
,,,-5.35999985e-007,       -2.44
,,,-5.27999985e-007,       -2.48
,,,-5.19999985e-007,       -2.44
,,,-5.11999986e-007,        -2.4
,,,-5.03999986e-007,        -2.4
,,,-4.95999986e-007,        -2.4
,,,-4.87999986e-007,       -2.36
,,,-4.79999986e-007,       -2.36
,,,-4.71999987e-007,        -2.4
,,,-4.63999987e-007,       -2.32
,,,-4.55999987e-007,       -2.32
,,,-4.47999987e-007,        -2.4
,,,-4.39999988e-007,       -2.24
,,,-4.31999988e-007,       -2.32
,,,-4.23999988e-007,       -2.24
,,,-4.15999988e-007,       -2.28
,,,-4.07999988e-007,       -2.24
,,,-3.99999989e-007,        -2.2
,,,-3.91999989e-007,        -2.2
,,,-3.83999989e-007,        -2.2
,,,-3.75999989e-007,       -2.16
,,,-3.6799999e-007,        -2.2
,,,-3.5999999e-007,        -2.2
,,,-3.5199999e-007,       -2.12
,,,-3.4399999e-007,       -2.04
,,,-3.3599999e-007,       -2.12
,,,-3.27999991e-007,       -2.08
,,,-3.19999991e-007,       -2.08
,,,-3.11999991e-007,       -2.08
,,,-3.03999991e-007,       -1.96
,,,-2.95999992e-007,          -2
,,,-2.87999992e-007,       -1.96
,,,-2.79999992e-007,          -2
,,,-2.71999992e-007,       -1.96
,,,-2.63999993e-007,       -1.92
,,,-2.55999993e-007,       -1.96
,,,-2.47999993e-007,       -1.88
,,,-2.39999993e-007,       -1.84
,,,-2.31999993e-007,       -1.88
,,,-2.23999994e-007,       -1.84
,,,-2.15999994e-007,        -1.8
,,,-2.07999994e-007,       -1.68
,,,-1.99999994e-007,       -1.76
,,,-1.91999995e-007,       -1.68
,,,-1.83999995e-007,       -1.72
,,,-1.75999995e-007,       -1.72
,,,-1.67999995e-007,       -1.72
,,,-1.59999995e-007,       -1.68
,,,-1.51999996e-007,       -1.68
,,,-1.43999996e-007,       -1.68
,,,-1.35999996e-007,       -1.52
,,,-1.27999996e-007,       -1.56
,,,-1.19999997e-007,       -1.56
,,,-1.11999997e-007,       -1.56
,,,-1.03999997e-007,       -1.52
,,,-9.59999973e-008,       -1.44
,,,-8.79999975e-008,       -1.44
,,,-7.99999977e-008,        -1.4
,,,-7.1999998e-008,        -1.4
,,,-6.39999982e-008,        -1.4
,,,-5.59999984e-008,       -1.36
,,,-4.79999986e-008,       -1.28
,,,-3.99999989e-008,       -1.32
,,,-3.19999991e-008,       -1.32
,,,-2.39999993e-008,       -1.28
,,,-1.59999995e-008,       -1.24
,,,-7.99999977e-009,       -1.16
,,,           0,        -1.2
,,,7.99999977e-009,       -1.16
,,,1.59999995e-008,       -1.12
,,,2.39999993e-008,       -1.08
,,,3.19999991e-008,       -1.04
,,,3.99999989e-008,       -1.04
,,,4.79999986e-008,       -1.04
,,,5.59999984e-008,       -0.92
,,,6.39999982e-008,       -0.96
,,,7.1999998e-008,       -0.92
,,,7.99999977e-008,       -0.92
,,,8.79999975e-008,       -0.88
,,,9.59999973e-008,        -0.8
,,,1.03999997e-007,       -0.76
,,,1.11999997e-007,       -0.76
,,,1.19999997e-007,        -0.8
,,,1.27999996e-007,       -0.68
,,,1.35999996e-007,       -0.68
,,,1.43999996e-007,       -0.68
,,,1.51999996e-007,        -0.6
,,,1.59999995e-007,        -0.6
,,,1.67999995e-007,       -0.56
,,,1.75999995e-007,       -0.52
,,,1.83999995e-007,       -0.52
,,,1.91999995e-007,       -0.48
,,,1.99999994e-007,       -0.52
,,,2.07999994e-007,        -0.4
,,,2.15999994e-007,       -0.44
,,,2.23999994e-007,        -0.4
,,,2.31999993e-007,       -0.36
,,,2.39999993e-007,       -0.32
,,,2.47999993e-007,       -0.28
,,,2.55999993e-007,       -0.28
,,,2.63999993e-007,        -0.2
,,,2.71999992e-007,        -0.2
,,,2.79999992e-007,       -0.16
,,,2.87999992e-007,       -0.16
,,,2.95999992e-007,       -0.08
,,,3.03999991e-007,       -0.08
,,,3.11999991e-007,       -0.08
,,,3.19999991e-007,       -0.12
,,,3.27999991e-007,        0.04
,,,3.3599999e-007,        0.04
,,,3.4399999e-007,        0.08
,,,3.5199999e-007,        0.08
,,,3.5999999e-007,        0.12
,,,3.6799999e-007,        0.16
,,,3.75999989e-007,         0.2
,,,3.83999989e-007,         0.2
,,,3.91999989e-007,         0.2
,,,3.99999989e-007,        0.28
,,,4.07999988e-007,        0.28
,,,4.15999988e-007,        0.28
,,,4.23999988e-007,        0.28
,,,4.31999988e-007,        0.36
,,,4.39999988e-007,         0.4
,,,4.47999987e-007,         0.4
,,,4.55999987e-007,        0.44
,,,4.63999987e-007,        0.52
,,,4.71999987e-007,        0.48
,,,4.79999986e-007,        0.48
,,,4.87999986e-007,        0.52
,,,4.95999986e-007,         0.6
,,,5.03999986e-007,         0.6
,,,5.11999986e-007,         0.6
,,,5.19999985e-007,        0.72
,,,5.27999985e-007,        0.64
,,,5.35999985e-007,        0.72
,,,5.43999985e-007,        0.76
,,,5.51999984e-007,        0.76
,,,5.59999984e-007,         0.8
,,,5.67999984e-007,         0.8
,,,5.75999984e-007,         0.8
,,,5.83999983e-007,        0.88
,,,5.91999983e-007,        0.88
