CalibrationOct2023/100623s1c3b1_0.csv

"Record Length",5000,"Points",-4.23999988e-006,      -0.006
"Sample Interval",7.99999977e-009,s,-4.23199988e-006,      -0.002
"Trigger Point",530,"Samples",-4.22399988e-006,       0.002
"Trigger Time",1.83915764e-009,s,-4.21599988e-006,       0.002
"",,,-4.20799988e-006,      -0.002
"Horizontal Offset",-4.23999988e-006,s,-4.19999988e-006,       0.002
,,,-4.19199988e-006,      -0.006
,,,-4.18399988e-006,      -0.002
,,,-4.17599988e-006,      -0.002
,,,-4.16799988e-006,       0.002
,,,-4.15999988e-006,      -0.006
,,,-4.15199988e-006,       0.002
,,,-4.14399988e-006,      -0.006
,,,-4.13599988e-006,      -0.002
,,,-4.12799988e-006,      -0.006
,,,-4.11999988e-006,      -0.002
,,,-4.11199988e-006,      -0.006
,,,-4.10399988e-006,      -0.002
,,,-4.09599988e-006,      -0.002
,,,-4.08799988e-006,      -0.002
,,,-4.07999988e-006,      -0.002
,,,-4.07199988e-006,      -0.006
,,,-4.06399989e-006,      -0.002
,,,-4.05599989e-006,      -0.006
,,,-4.04799989e-006,       0.002
,,,-4.03999989e-006,       0.002
,,,-4.03199989e-006,      -0.002
,,,-4.02399989e-006,       0.002
,,,-4.01599989e-006,      -0.006
,,,-4.00799989e-006,       0.002
,,,-3.99999989e-006,      -0.006
,,,-3.99199989e-006,       0.002
,,,-3.98399989e-006,      -0.002
,,,-3.97599989e-006,      -0.006
,,,-3.96799989e-006,      -0.006
,,,-3.95999989e-006,       0.002
,,,-3.95199989e-006,       0.002
,,,-3.94399989e-006,       0.006
,,,-3.93599989e-006,       0.002
,,,-3.92799989e-006,      -0.002
,,,-3.91999989e-006,      -0.006
,,,-3.91199989e-006,      -0.002
,,,-3.90399989e-006,      -0.002
,,,-3.89599989e-006,      -0.002
,,,-3.88799989e-006,      -0.006
,,,-3.87999989e-006,       0.002
,,,-3.87199989e-006,       0.002
,,,-3.86399989e-006,      -0.006
,,,-3.85599989e-006,      -0.002
,,,-3.84799989e-006,      -0.006
,,,-3.83999989e-006,      -0.006
,,,-3.83199989e-006,      -0.002
,,,-3.82399989e-006,       0.002
,,,-3.81599989e-006,      -0.006
,,,-3.80799989e-006,      -0.002
,,,-3.79999989e-006,      -0.006
,,,-3.79199989e-006,      -0.006
,,,-3.78399989e-006,      -0.002
,,,-3.77599989e-006,      -0.002
,,,-3.76799989e-006,      -0.002
,,,-3.75999989e-006,       -0.01
,,,-3.75199989e-006,       -0.01
,,,-3.74399989e-006,      -0.002
,,,-3.73599989e-006,      -0.002
,,,-3.72799989e-006,      -0.006
,,,-3.71999989e-006,      -0.002
,,,-3.7119999e-006,      -0.006
,,,-3.7039999e-006,       0.002
,,,-3.6959999e-006,      -0.002
,,,-3.6879999e-006,      -0.006
,,,-3.6799999e-006,      -0.002
,,,-3.6719999e-006,      -0.002
,,,-3.6639999e-006,      -0.006
,,,-3.6559999e-006,       0.002
,,,-3.6479999e-006,      -0.006
,,,-3.6399999e-006,      -0.002
,,,-3.6319999e-006,       0.006
,,,-3.6239999e-006,      -0.002
,,,-3.6159999e-006,      -0.006
,,,-3.6079999e-006,       0.002
,,,-3.5999999e-006,       -0.01
,,,-3.5919999e-006,      -0.002
,,,-3.5839999e-006,      -0.006
,,,-3.5759999e-006,      -0.002
,,,-3.5679999e-006,      -0.006
,,,-3.5599999e-006,      -0.002
,,,-3.5519999e-006,       0.002
,,,-3.5439999e-006,      -0.002
,,,-3.5359999e-006,      -0.006
,,,-3.5279999e-006,      -0.002
,,,-3.5199999e-006,       0.002
,,,-3.5119999e-006,      -0.006
,,,-3.5039999e-006,       -0.01
,,,-3.4959999e-006,       -0.01
,,,-3.4879999e-006,      -0.002
,,,-3.4799999e-006,      -0.006
,,,-3.4719999e-006,       -0.01
,,,-3.4639999e-006,      -0.006
,,,-3.4559999e-006,      -0.006
,,,-3.4479999e-006,       0.006
,,,-3.4399999e-006,      -0.006
,,,-3.4319999e-006,       0.002
,,,-3.4239999e-006,       0.002
,,,-3.4159999e-006,       0.002
,,,-3.4079999e-006,      -0.006
,,,-3.3999999e-006,      -0.006
,,,-3.3919999e-006,      -0.006
,,,-3.3839999e-006,       0.002
,,,-3.3759999e-006,      -0.002
,,,-3.3679999e-006,       0.002
,,,-3.3599999e-006,      -0.006
,,,-3.35199991e-006,      -0.002
,,,-3.34399991e-006,      -0.002
,,,-3.33599991e-006,      -0.006
,,,-3.32799991e-006,      -0.002
,,,-3.31999991e-006,       0.002
,,,-3.31199991e-006,       0.002
,,,-3.30399991e-006,      -0.002
,,,-3.29599991e-006,      -0.006
,,,-3.28799991e-006,      -0.002
,,,-3.27999991e-006,       0.002
,,,-3.27199991e-006,       0.002
,,,-3.26399991e-006,       -0.01
,,,-3.25599991e-006,      -0.006
,,,-3.24799991e-006,      -0.006
,,,-3.23999991e-006,      -0.002
,,,-3.23199991e-006,      -0.002
,,,-3.22399991e-006,       0.002
,,,-3.21599991e-006,       0.002
,,,-3.20799991e-006,      -0.006
,,,-3.19999991e-006,      -0.006
,,,-3.19199991e-006,       0.002
,,,-3.18399991e-006,       0.002
,,,-3.17599991e-006,       0.002
,,,-3.16799991e-006,      -0.002
,,,-3.15999991e-006,      -0.002
,,,-3.15199991e-006,      -0.006
,,,-3.14399991e-006,      -0.006
,,,-3.13599991e-006,      -0.006
,,,-3.12799991e-006,       0.002
,,,-3.11999991e-006,       0.002
,,,-3.11199991e-006,      -0.006
,,,-3.10399991e-006,      -0.006
,,,-3.09599991e-006,      -0.006
,,,-3.08799991e-006,      -0.006
,,,-3.07999991e-006,       0.006
,,,-3.07199991e-006,      -0.006
,,,-3.06399991e-006,       0.002
,,,-3.05599991e-006,      -0.002
,,,-3.04799991e-006,      -0.002
,,,-3.03999991e-006,       0.002
,,,-3.03199991e-006,       0.002
,,,-3.02399991e-006,      -0.002
,,,-3.01599991e-006,       0.002
,,,-3.00799991e-006,       -0.01
,,,-2.99999992e-006,       0.002
,,,-2.99199992e-006,       0.002
,,,-2.98399992e-006,      -0.006
,,,-2.97599992e-006,      -0.002
,,,-2.96799992e-006,      -0.002
,,,-2.95999992e-006,      -0.002
,,,-2.95199992e-006,      -0.002
,,,-2.94399992e-006,      -0.002
,,,-2.93599992e-006,      -0.006
,,,-2.92799992e-006,      -0.002
,,,-2.91999992e-006,       0.002
,,,-2.91199992e-006,      -0.002
,,,-2.90399992e-006,       0.006
,,,-2.89599992e-006,      -0.006
,,,-2.88799992e-006,      -0.006
,,,-2.87999992e-006,      -0.002
,,,-2.87199992e-006,       0.002
,,,-2.86399992e-006,      -0.002
,,,-2.85599992e-006,       -0.01
,,,-2.84799992e-006,      -0.006
,,,-2.83999992e-006,      -0.006
,,,-2.83199992e-006,      -0.002
,,,-2.82399992e-006,       0.002
,,,-2.81599992e-006,      -0.006
,,,-2.80799992e-006,      -0.002
,,,-2.79999992e-006,      -0.006
,,,-2.79199992e-006,      -0.002
,,,-2.78399992e-006,       0.002
,,,-2.77599992e-006,      -0.006
,,,-2.76799992e-006,      -0.002
,,,-2.75999992e-006,      -0.002
,,,-2.75199992e-006,      -0.006
,,,-2.74399992e-006,      -0.002
,,,-2.73599992e-006,       0.002
,,,-2.72799992e-006,      -0.002
,,,-2.71999992e-006,      -0.002
,,,-2.71199992e-006,       0.002
,,,-2.70399992e-006,      -0.002
,,,-2.69599992e-006,      -0.006
,,,-2.68799992e-006,      -0.006
,,,-2.67999992e-006,      -0.006
,,,-2.67199992e-006,      -0.006
,,,-2.66399992e-006,      -0.006
,,,-2.65599992e-006,      -0.002
,,,-2.64799993e-006,       0.002
,,,-2.63999993e-006,      -0.002
,,,-2.63199993e-006,       0.002
,,,-2.62399993e-006,      -0.006
,,,-2.61599993e-006,      -0.002
,,,-2.60799993e-006,       0.002
,,,-2.59999993e-006,      -0.002
,,,-2.59199993e-006,      -0.002
,,,-2.58399993e-006,      -0.006
,,,-2.57599993e-006,       0.002
,,,-2.56799993e-006,       0.002
,,,-2.55999993e-006,       0.002
,,,-2.55199993e-006,      -0.002
,,,-2.54399993e-006,      -0.002
,,,-2.53599993e-006,      -0.002
,,,-2.52799993e-006,       0.002
,,,-2.51999993e-006,      -0.006
,,,-2.51199993e-006,      -0.002
,,,-2.50399993e-006,       0.002
,,,-2.49599993e-006,      -0.006
,,,-2.48799993e-006,      -0.002
,,,-2.47999993e-006,      -0.006
,,,-2.47199993e-006,      -0.006
,,,-2.46399993e-006,      -0.002
,,,-2.45599993e-006,      -0.002
,,,-2.44799993e-006,      -0.002
,,,-2.43999993e-006,      -0.006
,,,-2.43199993e-006,      -0.002
,,,-2.42399993e-006,      -0.002
,,,-2.41599993e-006,      -0.006
,,,-2.40799993e-006,      -0.006
,,,-2.39999993e-006,      -0.002
,,,-2.39199993e-006,       0.002
,,,-2.38399993e-006,      -0.006
,,,-2.37599993e-006,      -0.006
,,,-2.36799993e-006,       -0.01
,,,-2.35999993e-006,      -0.006
,,,-2.35199993e-006,      -0.002
,,,-2.34399993e-006,      -0.002
,,,-2.33599993e-006,      -0.002
,,,-2.32799993e-006,       0.002
,,,-2.31999993e-006,      -0.006
,,,-2.31199993e-006,      -0.002
,,,-2.30399993e-006,       0.002
,,,-2.29599994e-006,      -0.006
,,,-2.28799994e-006,      -0.006
,,,-2.27999994e-006,      -0.006
,,,-2.27199994e-006,       0.002
,,,-2.26399994e-006,      -0.002
,,,-2.25599994e-006,      -0.006
,,,-2.24799994e-006,      -0.002
,,,-2.23999994e-006,      -0.006
,,,-2.23199994e-006,      -0.002
,,,-2.22399994e-006,      -0.002
,,,-2.21599994e-006,      -0.002
,,,-2.20799994e-006,       0.002
,,,-2.19999994e-006,      -0.002
,,,-2.19199994e-006,      -0.006
,,,-2.18399994e-006,      -0.006
,,,-2.17599994e-006,      -0.006
,,,-2.16799994e-006,      -0.002
,,,-2.15999994e-006,       0.002
,,,-2.15199994e-006,       0.002
,,,-2.14399994e-006,      -0.002
,,,-2.13599994e-006,      -0.002
,,,-2.12799994e-006,       0.002
,,,-2.11999994e-006,      -0.002
,,,-2.11199994e-006,      -0.002
,,,-2.10399994e-006,      -0.002
,,,-2.09599994e-006,      -0.006
,,,-2.08799994e-006,      -0.002
,,,-2.07999994e-006,       -0.01
,,,-2.07199994e-006,      -0.006
,,,-2.06399994e-006,      -0.002
,,,-2.05599994e-006,      -0.002
,,,-2.04799994e-006,      -0.002
,,,-2.03999994e-006,      -0.006
,,,-2.03199994e-006,      -0.006
,,,-2.02399994e-006,      -0.002
,,,-2.01599994e-006,      -0.002
,,,-2.00799994e-006,      -0.002
,,,-1.99999994e-006,      -0.002
,,,-1.99199994e-006,       0.002
,,,-1.98399994e-006,       0.002
,,,-1.97599994e-006,      -0.002
,,,-1.96799994e-006,      -0.006
,,,-1.95999994e-006,      -0.002
,,,-1.95199994e-006,       0.002
,,,-1.94399995e-006,      -0.006
,,,-1.93599995e-006,       0.002
,,,-1.92799995e-006,      -0.006
,,,-1.91999995e-006,      -0.002
,,,-1.91199995e-006,      -0.002
,,,-1.90399995e-006,       0.006
,,,-1.89599995e-006,      -0.006
,,,-1.88799995e-006,       0.094
,,,-1.87999995e-006,       0.282
,,,-1.87199995e-006,       0.018
,,,-1.86399995e-006,      -0.338
,,,-1.85599995e-006,      -0.298
,,,-1.84799995e-006,       -0.33
,,,-1.83999995e-006,      -0.218
,,,-1.83199995e-006,      -0.238
,,,-1.82399995e-006,       -0.29
,,,-1.81599995e-006,      -0.318
,,,-1.80799995e-006,       -0.31
,,,-1.79999995e-006,      -0.254
,,,-1.79199995e-006,      -0.234
,,,-1.78399995e-006,      -0.266
,,,-1.77599995e-006,      -0.326
,,,-1.76799995e-006,       -0.31
,,,-1.75999995e-006,      -0.274
,,,-1.75199995e-006,       -0.27
,,,-1.74399995e-006,       -0.31
,,,-1.73599995e-006,      -0.314
,,,-1.72799995e-006,       -0.31
,,,-1.71999995e-006,      -0.294
,,,-1.71199995e-006,      -0.286
,,,-1.70399995e-006,      -0.302
,,,-1.69599995e-006,      -0.314
,,,-1.68799995e-006,      -0.298
,,,-1.67999995e-006,      -0.278
,,,-1.67199995e-006,      -0.298
,,,-1.66399995e-006,      -0.314
,,,-1.65599995e-006,      -0.286
,,,-1.64799995e-006,      -0.282
,,,-1.63999995e-006,      -0.294
,,,-1.63199995e-006,       -0.29
,,,-1.62399995e-006,      -0.278
,,,-1.61599995e-006,      -0.278
,,,-1.60799995e-006,       -0.29
,,,-1.59999995e-006,      -0.286
,,,-1.59199995e-006,      -0.274
,,,-1.58399996e-006,      -0.274
,,,-1.57599996e-006,      -0.274
,,,-1.56799996e-006,      -0.286
,,,-1.55999996e-006,      -0.274
,,,-1.55199996e-006,       -0.27
,,,-1.54399996e-006,      -0.266
,,,-1.53599996e-006,      -0.274
,,,-1.52799996e-006,       -0.27
,,,-1.51999996e-006,      -0.258
,,,-1.51199996e-006,      -0.262
,,,-1.50399996e-006,      -0.266
,,,-1.49599996e-006,      -0.262
,,,-1.48799996e-006,      -0.258
,,,-1.47999996e-006,      -0.254
,,,-1.47199996e-006,      -0.254
,,,-1.46399996e-006,      -0.258
,,,-1.45599996e-006,      -0.246
,,,-1.44799996e-006,      -0.246
,,,-1.43999996e-006,      -0.254
,,,-1.43199996e-006,       -0.25
,,,-1.42399996e-006,      -0.242
,,,-1.41599996e-006,      -0.238
,,,-1.40799996e-006,      -0.242
,,,-1.39999996e-006,      -0.238
,,,-1.39199996e-006,      -0.234
,,,-1.38399996e-006,      -0.226
,,,-1.37599996e-006,       -0.23
,,,-1.36799996e-006,      -0.238
,,,-1.35999996e-006,      -0.222
,,,-1.35199996e-006,      -0.218
,,,-1.34399996e-006,      -0.222
,,,-1.33599996e-006,      -0.222
,,,-1.32799996e-006,       -0.21
,,,-1.31999996e-006,      -0.214
,,,-1.31199996e-006,      -0.218
,,,-1.30399996e-006,      -0.206
,,,-1.29599996e-006,      -0.206
,,,-1.28799996e-006,      -0.194
,,,-1.27999996e-006,      -0.194
,,,-1.27199996e-006,      -0.198
,,,-1.26399996e-006,       -0.19
,,,-1.25599996e-006,       -0.19
,,,-1.24799996e-006,      -0.194
,,,-1.23999996e-006,      -0.194
,,,-1.23199997e-006,      -0.182
,,,-1.22399997e-006,      -0.182
,,,-1.21599997e-006,      -0.182
,,,-1.20799997e-006,      -0.182
,,,-1.19999997e-006,      -0.174
,,,-1.19199997e-006,      -0.166
,,,-1.18399997e-006,      -0.162
,,,-1.17599997e-006,      -0.166
,,,-1.16799997e-006,      -0.154
,,,-1.15999997e-006,       -0.15
,,,-1.15199997e-006,      -0.154
,,,-1.14399997e-006,      -0.158
,,,-1.13599997e-006,      -0.146
,,,-1.12799997e-006,      -0.146
,,,-1.11999997e-006,      -0.146
,,,-1.11199997e-006,      -0.146
,,,-1.10399997e-006,      -0.138
,,,-1.09599997e-006,      -0.126
,,,-1.08799997e-006,       -0.13
,,,-1.07999997e-006,       -0.13
,,,-1.07199997e-006,      -0.122
,,,-1.06399997e-006,      -0.122
,,,-1.05599997e-006,      -0.118
,,,-1.04799997e-006,       -0.11
,,,-1.03999997e-006,       -0.11
,,,-1.03199997e-006,       -0.11
,,,-1.02399997e-006,      -0.102
,,,-1.01599997e-006,      -0.102
,,,-1.00799997e-006,      -0.102
,,,-9.99999972e-007,       -0.09
,,,-9.91999972e-007,       -0.09
,,,-9.83999972e-007,      -0.094
,,,-9.75999972e-007,      -0.086
,,,-9.67999973e-007,      -0.078
,,,-9.59999973e-007,       -0.07
,,,-9.51999973e-007,      -0.074
,,,-9.43999973e-007,       -0.07
,,,-9.35999974e-007,       -0.07
,,,-9.27999974e-007,      -0.062
,,,-9.19999974e-007,      -0.066
,,,-9.11999974e-007,      -0.058
,,,-9.03999974e-007,       -0.05
,,,-8.95999975e-007,      -0.046
,,,-8.87999975e-007,      -0.054
,,,-8.79999975e-007,      -0.046
,,,-8.71999975e-007,      -0.046
,,,-8.63999976e-007,      -0.042
,,,-8.55999976e-007,      -0.034
,,,-8.47999976e-007,      -0.038
,,,-8.39999976e-007,      -0.026
,,,-8.31999976e-007,      -0.022
,,,-8.23999977e-007,      -0.022
,,,-8.15999977e-007,       -0.01
,,,-8.07999977e-007,      -0.014
,,,-7.99999977e-007,      -0.006
,,,-7.91999978e-007,      -0.006
,,,-7.83999978e-007,      -0.002
,,,-7.75999978e-007,       0.002
,,,-7.67999978e-007,       0.006
,,,-7.59999979e-007,       0.002
,,,-7.51999979e-007,        0.01
,,,-7.43999979e-007,       0.014
,,,-7.35999979e-007,       0.022
,,,-7.27999979e-007,       0.022
,,,-7.1999998e-007,       0.026
,,,-7.1199998e-007,        0.03
,,,-7.0399998e-007,       0.034
,,,-6.9599998e-007,       0.034
,,,-6.87999981e-007,       0.038
,,,-6.79999981e-007,       0.042
,,,-6.71999981e-007,       0.046
,,,-6.63999981e-007,        0.05
,,,-6.55999981e-007,       0.046
,,,-6.47999982e-007,       0.054
,,,-6.39999982e-007,       0.058
,,,-6.31999982e-007,       0.058
,,,-6.23999982e-007,       0.062
,,,-6.15999983e-007,       0.066
,,,-6.07999983e-007,       0.066
,,,-5.99999983e-007,       0.074
,,,-5.91999983e-007,       0.066
,,,-5.83999983e-007,       0.078
,,,-5.75999984e-007,       0.082
,,,-5.67999984e-007,       0.082
,,,-5.59999984e-007,        0.09
,,,-5.51999984e-007,        0.09
,,,-5.43999985e-007,       0.098
,,,-5.35999985e-007,       0.098
,,,-5.27999985e-007,       0.098
,,,-5.19999985e-007,       0.098
,,,-5.11999986e-007,       0.106
,,,-5.03999986e-007,       0.114
,,,-4.95999986e-007,        0.11
,,,-4.87999986e-007,       0.118
,,,-4.79999986e-007,       0.118
,,,-4.71999987e-007,       0.118
,,,-4.63999987e-007,       0.126
,,,-4.55999987e-007,        0.13
,,,-4.47999987e-007,       0.134
,,,-4.39999988e-007,       0.138
,,,-4.31999988e-007,       0.134
,,,-4.23999988e-007,       0.138
,,,-4.15999988e-007,       0.142
,,,-4.07999988e-007,       0.142
,,,-3.99999989e-007,       0.142
,,,-3.91999989e-007,       0.154
,,,-3.83999989e-007,       0.158
,,,-3.75999989e-007,       0.158
,,,-3.6799999e-007,       0.162
,,,-3.5999999e-007,       0.162
,,,-3.5199999e-007,       0.166
,,,-3.4399999e-007,        0.17
,,,-3.3599999e-007,       0.166
,,,-3.27999991e-007,       0.174
,,,-3.19999991e-007,       0.174
,,,-3.11999991e-007,       0.178
,,,-3.03999991e-007,       0.178
,,,-2.95999992e-007,       0.186
,,,-2.87999992e-007,       0.186
,,,-2.79999992e-007,        0.19
,,,-2.71999992e-007,       0.194
,,,-2.63999993e-007,       0.186
,,,-2.55999993e-007,       0.198
,,,-2.47999993e-007,       0.202
,,,-2.39999993e-007,        0.21
,,,-2.31999993e-007,       0.194
,,,-2.23999994e-007,       0.206
,,,-2.15999994e-007,        0.21
,,,-2.07999994e-007,        0.21
,,,-1.99999994e-007,       0.218
,,,-1.91999995e-007,       0.218
,,,-1.83999995e-007,       0.218
,,,-1.75999995e-007,       0.222
,,,-1.67999995e-007,       0.218
,,,-1.59999995e-007,       0.222
,,,-1.51999996e-007,       0.226
,,,-1.43999996e-007,       0.226
,,,-1.35999996e-007,        0.23
,,,-1.27999996e-007,       0.226
,,,-1.19999997e-007,       0.226
,,,-1.11999997e-007,        0.23
,,,-1.03999997e-007,       0.234
,,,-9.59999973e-008,       0.234
,,,-8.79999975e-008,       0.238
,,,-7.99999977e-008,       0.242
,,,-7.1999998e-008,       0.242
,,,-6.39999982e-008,       0.246
,,,-5.59999984e-008,       0.246
,,,-4.79999986e-008,       0.246
,,,-3.99999989e-008,       0.246
,,,-3.19999991e-008,       0.254
,,,-2.39999993e-008,       0.258
,,,-1.59999995e-008,        0.25
,,,-7.99999977e-009,       0.254
,,,           0,       0.258
,,,7.99999977e-009,       0.258
,,,1.59999995e-008,       0.258
,,,2.39999993e-008,        0.27
,,,3.19999991e-008,       0.258
,,,3.99999989e-008,       0.262
,,,4.79999986e-008,       0.262
,,,5.59999984e-008,       0.262
,,,6.39999982e-008,        0.27
,,,7.1999998e-008,       0.266
,,,7.99999977e-008,       0.262
,,,8.79999975e-008,        0.27
,,,9.59999973e-008,        0.27
,,,1.03999997e-007,       0.266
,,,1.11999997e-007,       0.274
,,,1.19999997e-007,        0.27
,,,1.27999996e-007,       0.278
,,,1.35999996e-007,       0.278
,,,1.43999996e-007,        0.27
,,,1.51999996e-007,       0.278
,,,1.59999995e-007,       0.278
,,,1.67999995e-007,       0.282
,,,1.75999995e-007,       0.278
,,,1.83999995e-007,       0.274
,,,1.91999995e-007,       0.274
,,,1.99999994e-007,       0.282
,,,2.07999994e-007,       0.282
,,,2.15999994e-007,       0.278
,,,2.23999994e-007,       0.278
,,,2.31999993e-007,       0.282
,,,2.39999993e-007,       0.278
,,,2.47999993e-007,       0.282
,,,2.55999993e-007,       0.278
,,,2.63999993e-007,       0.282
,,,2.71999992e-007,       0.278
,,,2.79999992e-007,       0.274
,,,2.87999992e-007,       0.286
,,,2.95999992e-007,       0.282
,,,3.03999991e-007,       0.286
,,,3.11999991e-007,       0.286
,,,3.19999991e-007,       0.278
,,,3.27999991e-007,       0.258
,,,3.3599999e-007,       0.274
,,,3.4399999e-007,       0.294
,,,3.5199999e-007,       0.274
,,,3.5999999e-007,       0.278
,,,3.6799999e-007,        0.27
,,,3.75999989e-007,        0.27
,,,3.83999989e-007,       0.274
,,,3.91999989e-007,       0.266
,,,3.99999989e-007,        0.27
,,,4.07999988e-007,        0.27
,,,4.15999988e-007,       0.266
,,,4.23999988e-007,       0.266
,,,4.31999988e-007,       0.274
,,,4.39999988e-007,       0.266
,,,4.47999987e-007,       0.266
,,,4.55999987e-007,        0.27
,,,4.63999987e-007,       0.262
,,,4.71999987e-007,       0.266
,,,4.79999986e-007,       0.262
,,,4.87999986e-007,        0.27
,,,4.95999986e-007,       0.266
,,,5.03999986e-007,       0.258
,,,5.11999986e-007,       0.258
,,,5.19999985e-007,       0.258
,,,5.27999985e-007,       0.258
,,,5.35999985e-007,       0.262
,,,5.43999985e-007,       0.254
,,,5.51999984e-007,       0.258
,,,5.59999984e-007,       0.254
,,,5.67999984e-007,       0.258
,,,5.75999984e-007,        0.25
,,,5.83999983e-007,        0.25
,,,5.91999983e-007,        0.25
