CalibrationOct2023/RogCalibOct23-c2002.csv

"Record Length",5000,"Points",-3.42080005e-006,       0.006
"Sample Interval",1.60000002e-009,s,-3.41920005e-006,        0.01
"Trigger Point",2138,"Samples",-3.41760005e-006,      -0.002
"Trigger Time",9.39156998e-010,s,-3.41600005e-006,       0.006
"",,,-3.41440005e-006,       0.002
"Horizontal Offset",-3.42080005e-006,s,-3.41280005e-006,       0.002
,,,-3.41120005e-006,       0.002
,,,-3.40960005e-006,       0.002
,,,-3.40800005e-006,       0.002
,,,-3.40640005e-006,       0.006
,,,-3.40480005e-006,       0.002
,,,-3.40320005e-006,       0.006
,,,-3.40160005e-006,       0.002
,,,-3.40000005e-006,      -0.006
,,,-3.39840005e-006,      -0.002
,,,-3.39680005e-006,       0.002
,,,-3.39520005e-006,      -0.002
,,,-3.39360005e-006,       0.006
,,,-3.39200005e-006,       0.002
,,,-3.39040005e-006,       0.002
,,,-3.38880005e-006,      -0.002
,,,-3.38720005e-006,       0.002
,,,-3.38560005e-006,       0.002
,,,-3.38400005e-006,       0.006
,,,-3.38240005e-006,       0.002
,,,-3.38080005e-006,      -0.002
,,,-3.37920005e-006,       0.002
,,,-3.37760005e-006,       0.002
,,,-3.37600005e-006,       0.002
,,,-3.37440005e-006,       0.006
,,,-3.37280005e-006,       0.002
,,,-3.37120005e-006,       0.002
,,,-3.36960004e-006,       0.006
,,,-3.36800004e-006,       0.006
,,,-3.36640004e-006,       0.002
,,,-3.36480004e-006,       0.002
,,,-3.36320004e-006,       0.002
,,,-3.36160004e-006,       0.002
,,,-3.36000004e-006,       0.002
,,,-3.35840004e-006,       0.002
,,,-3.35680004e-006,       0.002
,,,-3.35520004e-006,      -0.002
,,,-3.35360004e-006,      -0.002
,,,-3.35200004e-006,       0.002
,,,-3.35040004e-006,       0.002
,,,-3.34880004e-006,       0.006
,,,-3.34720004e-006,       0.006
,,,-3.34560004e-006,       0.006
,,,-3.34400004e-006,      -0.002
,,,-3.34240004e-006,      -0.002
,,,-3.34080004e-006,       0.002
,,,-3.33920004e-006,       0.002
,,,-3.33760004e-006,       0.002
,,,-3.33600004e-006,       0.006
,,,-3.33440004e-006,       0.006
,,,-3.33280004e-006,       0.002
,,,-3.33120004e-006,       0.002
,,,-3.32960004e-006,      -0.002
,,,-3.32800004e-006,       0.002
,,,-3.32640004e-006,       0.006
,,,-3.32480004e-006,      -0.002
,,,-3.32320004e-006,       0.006
,,,-3.32160004e-006,      -0.002
,,,-3.32000004e-006,      -0.002
,,,-3.31840004e-006,       0.002
,,,-3.31680004e-006,       0.006
,,,-3.31520004e-006,       0.002
,,,-3.31360004e-006,       0.006
,,,-3.31200004e-006,       0.002
,,,-3.31040004e-006,       0.002
,,,-3.30880004e-006,       0.002
,,,-3.30720004e-006,       0.002
,,,-3.30560004e-006,       0.002
,,,-3.30400004e-006,       0.002
,,,-3.30240004e-006,       0.002
,,,-3.30080004e-006,       0.002
,,,-3.29920004e-006,      -0.002
,,,-3.29760004e-006,      -0.002
,,,-3.29600004e-006,      -0.002
,,,-3.29440004e-006,       0.002
,,,-3.29280004e-006,      -0.002
,,,-3.29120004e-006,       0.002
,,,-3.28960004e-006,      -0.002
,,,-3.28800004e-006,       0.002
,,,-3.28640004e-006,       0.002
,,,-3.28480004e-006,       0.002
,,,-3.28320004e-006,      -0.002
,,,-3.28160004e-006,      -0.002
,,,-3.28000004e-006,       0.002
,,,-3.27840004e-006,       0.002
,,,-3.27680004e-006,       0.002
,,,-3.27520004e-006,       0.006
,,,-3.27360004e-006,       0.006
,,,-3.27200004e-006,       0.002
,,,-3.27040004e-006,       0.002
,,,-3.26880004e-006,       0.002
,,,-3.26720004e-006,       0.002
,,,-3.26560004e-006,      -0.002
,,,-3.26400004e-006,      -0.006
,,,-3.26240004e-006,       0.006
,,,-3.26080004e-006,       0.006
,,,-3.25920004e-006,      -0.002
,,,-3.25760004e-006,       0.006
,,,-3.25600004e-006,       0.006
,,,-3.25440004e-006,       0.002
,,,-3.25280004e-006,        0.01
,,,-3.25120004e-006,       0.002
,,,-3.24960004e-006,       0.006
,,,-3.24800004e-006,       0.002
,,,-3.24640004e-006,       0.002
,,,-3.24480004e-006,       0.002
,,,-3.24320004e-006,      -0.006
,,,-3.24160004e-006,       0.002
,,,-3.24000004e-006,      -0.002
,,,-3.23840004e-006,       0.002
,,,-3.23680004e-006,      -0.002
,,,-3.23520004e-006,      -0.006
,,,-3.23360004e-006,       0.006
,,,-3.23200004e-006,       0.002
,,,-3.23040004e-006,       0.006
,,,-3.22880004e-006,        0.01
,,,-3.22720004e-006,        0.01
,,,-3.22560004e-006,       0.006
,,,-3.22400004e-006,       0.002
,,,-3.22240004e-006,       0.002
,,,-3.22080004e-006,       0.006
,,,-3.21920004e-006,       0.002
,,,-3.21760004e-006,       0.002
,,,-3.21600004e-006,      -0.002
,,,-3.21440004e-006,       0.002
,,,-3.21280004e-006,       0.006
,,,-3.21120004e-006,      -0.002
,,,-3.20960004e-006,      -0.002
,,,-3.20800004e-006,       0.002
,,,-3.20640004e-006,       0.002
,,,-3.20480004e-006,       0.002
,,,-3.20320004e-006,      -0.002
,,,-3.20160004e-006,       0.006
,,,-3.20000004e-006,      -0.002
,,,-3.19840004e-006,       0.002
,,,-3.19680004e-006,       0.002
,,,-3.19520004e-006,       0.006
,,,-3.19360004e-006,       0.006
,,,-3.19200004e-006,       0.002
,,,-3.19040004e-006,       0.002
,,,-3.18880004e-006,       0.002
,,,-3.18720004e-006,       0.002
,,,-3.18560004e-006,       0.002
,,,-3.18400004e-006,       0.006
,,,-3.18240004e-006,      -0.002
,,,-3.18080004e-006,      -0.002
,,,-3.17920004e-006,       0.006
,,,-3.17760004e-006,       0.002
,,,-3.17600004e-006,      -0.006
,,,-3.17440004e-006,      -0.002
,,,-3.17280004e-006,        0.01
,,,-3.17120004e-006,      -0.002
,,,-3.16960004e-006,      -0.002
,,,-3.16800004e-006,       0.002
,,,-3.16640004e-006,       0.006
,,,-3.16480004e-006,       0.002
,,,-3.16320004e-006,       0.002
,,,-3.16160004e-006,       0.002
,,,-3.16000004e-006,       0.002
,,,-3.15840004e-006,       0.006
,,,-3.15680004e-006,       0.002
,,,-3.15520004e-006,       0.002
,,,-3.15360004e-006,       0.002
,,,-3.15200004e-006,       0.002
,,,-3.15040004e-006,       0.002
,,,-3.14880004e-006,       0.006
,,,-3.14720004e-006,       0.002
,,,-3.14560004e-006,       0.002
,,,-3.14400004e-006,      -0.002
,,,-3.14240004e-006,      -0.002
,,,-3.14080004e-006,      -0.002
,,,-3.13920004e-006,       0.002
,,,-3.13760004e-006,       0.002
,,,-3.13600004e-006,       0.002
,,,-3.13440004e-006,       0.002
,,,-3.13280004e-006,       0.006
,,,-3.13120004e-006,      -0.002
,,,-3.12960004e-006,      -0.002
,,,-3.12800004e-006,      -0.002
,,,-3.12640004e-006,       0.002
,,,-3.12480004e-006,       0.002
,,,-3.12320004e-006,      -0.002
,,,-3.12160004e-006,       0.006
,,,-3.12000004e-006,       0.002
,,,-3.11840004e-006,      -0.006
,,,-3.11680004e-006,       0.002
,,,-3.11520004e-006,      -0.002
,,,-3.11360004e-006,        0.01
,,,-3.11200004e-006,      -0.002
,,,-3.11040004e-006,       0.002
,,,-3.10880004e-006,      -0.002
,,,-3.10720004e-006,       0.006
,,,-3.10560004e-006,      -0.002
,,,-3.10400004e-006,      -0.006
,,,-3.10240004e-006,        0.01
,,,-3.10080004e-006,       0.006
,,,-3.09920004e-006,       0.002
,,,-3.09760004e-006,       0.006
,,,-3.09600004e-006,       0.002
,,,-3.09440004e-006,       0.002
,,,-3.09280004e-006,      -0.002
,,,-3.09120004e-006,       0.006
,,,-3.08960004e-006,       0.002
,,,-3.08800004e-006,       0.002
,,,-3.08640004e-006,       0.006
,,,-3.08480004e-006,      -0.002
,,,-3.08320004e-006,      -0.002
,,,-3.08160004e-006,       0.002
,,,-3.08000004e-006,       0.006
,,,-3.07840004e-006,       0.002
,,,-3.07680004e-006,       0.002
,,,-3.07520004e-006,      -0.002
,,,-3.07360004e-006,      -0.002
,,,-3.07200004e-006,       0.002
,,,-3.07040004e-006,      -0.002
,,,-3.06880004e-006,       0.002
,,,-3.06720004e-006,      -0.002
,,,-3.06560004e-006,      -0.002
,,,-3.06400004e-006,       0.002
,,,-3.06240004e-006,       0.006
,,,-3.06080004e-006,      -0.002
,,,-3.05920004e-006,       0.002
,,,-3.05760004e-006,       0.002
,,,-3.05600004e-006,       0.002
,,,-3.05440004e-006,       0.002
,,,-3.05280004e-006,       0.002
,,,-3.05120004e-006,       0.002
,,,-3.04960004e-006,       0.002
,,,-3.04800004e-006,       0.002
,,,-3.04640004e-006,       0.002
,,,-3.04480004e-006,       0.002
,,,-3.04320004e-006,      -0.002
,,,-3.04160004e-006,       0.006
,,,-3.04000004e-006,       0.002
,,,-3.03840004e-006,       0.002
,,,-3.03680004e-006,       0.002
,,,-3.03520004e-006,      -0.002
,,,-3.03360004e-006,       0.002
,,,-3.03200004e-006,        0.01
,,,-3.03040004e-006,      -0.006
,,,-3.02880004e-006,      -0.006
,,,-3.02720004e-006,       0.006
,,,-3.02560004e-006,       0.002
,,,-3.02400004e-006,       0.002
,,,-3.02240004e-006,       0.006
,,,-3.02080004e-006,       0.002
,,,-3.01920004e-006,       0.002
,,,-3.01760004e-006,       0.002
,,,-3.01600004e-006,      -0.002
,,,-3.01440004e-006,      -0.002
,,,-3.01280004e-006,       0.002
,,,-3.01120004e-006,       0.002
,,,-3.00960004e-006,       0.006
,,,-3.00800004e-006,       0.006
,,,-3.00640004e-006,       0.014
,,,-3.00480004e-006,       0.002
,,,-3.00320004e-006,       0.006
,,,-3.00160004e-006,       0.002
,,,-3.00000004e-006,       0.002
,,,-2.99840004e-006,       0.002
,,,-2.99680004e-006,       0.002
,,,-2.99520004e-006,       0.006
,,,-2.99360004e-006,       0.002
,,,-2.99200004e-006,       0.002
,,,-2.99040004e-006,      -0.002
,,,-2.98880004e-006,       0.006
,,,-2.98720004e-006,       0.006
,,,-2.98560004e-006,       0.002
,,,-2.98400004e-006,       0.002
,,,-2.98240004e-006,       0.002
,,,-2.98080004e-006,      -0.002
,,,-2.97920004e-006,       0.002
,,,-2.97760004e-006,      -0.002
,,,-2.97600004e-006,       0.002
,,,-2.97440004e-006,       0.002
,,,-2.97280004e-006,       0.002
,,,-2.97120004e-006,       0.002
,,,-2.96960004e-006,       0.006
,,,-2.96800004e-006,      -0.002
,,,-2.96640004e-006,      -0.002
,,,-2.96480004e-006,      -0.002
,,,-2.96320004e-006,       0.002
,,,-2.96160004e-006,       0.002
,,,-2.96000004e-006,      -0.002
,,,-2.95840004e-006,       0.002
,,,-2.95680004e-006,      -0.002
,,,-2.95520004e-006,       0.002
,,,-2.95360004e-006,       0.002
,,,-2.95200004e-006,      -0.002
,,,-2.95040004e-006,       0.002
,,,-2.94880004e-006,       0.002
,,,-2.94720004e-006,       0.002
,,,-2.94560004e-006,       0.002
,,,-2.94400004e-006,       0.002
,,,-2.94240004e-006,       0.002
,,,-2.94080004e-006,       0.002
,,,-2.93920004e-006,      -0.002
,,,-2.93760004e-006,       0.002
,,,-2.93600004e-006,      -0.006
,,,-2.93440004e-006,       0.002
,,,-2.93280004e-006,       0.002
,,,-2.93120004e-006,      -0.006
,,,-2.92960004e-006,      -0.002
,,,-2.92800004e-006,       0.002
,,,-2.92640004e-006,       0.002
,,,-2.92480004e-006,       0.006
,,,-2.92320004e-006,       0.002
,,,-2.92160004e-006,       0.002
,,,-2.92000004e-006,        0.01
,,,-2.91840004e-006,      -0.002
,,,-2.91680004e-006,       0.002
,,,-2.91520004e-006,       0.006
,,,-2.91360004e-006,       0.006
,,,-2.91200004e-006,       0.006
,,,-2.91040004e-006,       0.002
,,,-2.90880004e-006,      -0.002
,,,-2.90720004e-006,       0.002
,,,-2.90560004e-006,       0.002
,,,-2.90400004e-006,       0.002
,,,-2.90240004e-006,       0.002
,,,-2.90080004e-006,       0.006
,,,-2.89920004e-006,       0.002
,,,-2.89760004e-006,      -0.002
,,,-2.89600004e-006,       0.002
,,,-2.89440004e-006,       0.002
,,,-2.89280004e-006,      -0.002
,,,-2.89120004e-006,      -0.002
,,,-2.88960004e-006,       0.002
,,,-2.88800004e-006,       0.002
,,,-2.88640004e-006,       0.002
,,,-2.88480004e-006,       0.002
,,,-2.88320004e-006,       0.002
,,,-2.88160004e-006,       0.006
,,,-2.88000004e-006,      -0.002
,,,-2.87840004e-006,       0.006
,,,-2.87680004e-006,      -0.002
,,,-2.87520004e-006,       0.006
,,,-2.87360004e-006,       0.006
,,,-2.87200004e-006,      -0.002
,,,-2.87040004e-006,      -0.002
,,,-2.86880004e-006,       0.002
,,,-2.86720004e-006,       0.002
,,,-2.86560004e-006,       0.002
,,,-2.86400004e-006,       0.002
,,,-2.86240004e-006,       0.006
,,,-2.86080004e-006,       0.006
,,,-2.85920004e-006,      -0.002
,,,-2.85760004e-006,       0.002
,,,-2.85600004e-006,       0.002
,,,-2.85440004e-006,       0.002
,,,-2.85280004e-006,       0.002
,,,-2.85120004e-006,       0.002
,,,-2.84960004e-006,      -0.002
,,,-2.84800004e-006,       0.002
,,,-2.84640004e-006,      -0.002
,,,-2.84480004e-006,      -0.002
,,,-2.84320004e-006,       0.002
,,,-2.84160004e-006,      -0.002
,,,-2.84000004e-006,       0.002
,,,-2.83840004e-006,        0.01
,,,-2.83680004e-006,       0.002
,,,-2.83520004e-006,       0.002
,,,-2.83360004e-006,      -0.002
,,,-2.83200004e-006,      -0.002
,,,-2.83040004e-006,       0.002
,,,-2.82880004e-006,      -0.002
,,,-2.82720004e-006,      -0.002
,,,-2.82560004e-006,       0.002
,,,-2.82400004e-006,       0.002
,,,-2.82240004e-006,       0.002
,,,-2.82080004e-006,       0.002
,,,-2.81920004e-006,       0.002
,,,-2.81760004e-006,       0.002
,,,-2.81600004e-006,       0.002
,,,-2.81440004e-006,       0.006
,,,-2.81280004e-006,       0.006
,,,-2.81120004e-006,        0.01
,,,-2.80960004e-006,       0.002
,,,-2.80800004e-006,       0.006
,,,-2.80640004e-006,       0.002
,,,-2.80480004e-006,       0.002
,,,-2.80320004e-006,       0.002
,,,-2.80160004e-006,      -0.002
,,,-2.80000004e-006,       0.002
,,,-2.79840004e-006,       0.002
,,,-2.79680004e-006,       0.002
,,,-2.79520004e-006,       0.002
,,,-2.79360004e-006,      -0.002
,,,-2.79200004e-006,       0.002
,,,-2.79040004e-006,       0.002
,,,-2.78880004e-006,       0.002
,,,-2.78720004e-006,       0.006
,,,-2.78560004e-006,       0.006
,,,-2.78400004e-006,       0.006
,,,-2.78240004e-006,       0.002
,,,-2.78080004e-006,       0.002
,,,-2.77920004e-006,      -0.002
,,,-2.77760004e-006,      -0.002
,,,-2.77600004e-006,      -0.002
,,,-2.77440004e-006,       0.002
,,,-2.77280004e-006,      -0.002
,,,-2.77120004e-006,       0.002
,,,-2.76960004e-006,      -0.002
,,,-2.76800004e-006,      -0.006
,,,-2.76640004e-006,      -0.006
,,,-2.76480004e-006,       0.002
,,,-2.76320004e-006,       0.006
,,,-2.76160004e-006,       0.002
,,,-2.76000004e-006,      -0.002
,,,-2.75840004e-006,      -0.002
,,,-2.75680004e-006,       0.002
,,,-2.75520004e-006,       0.002
,,,-2.75360004e-006,       0.006
,,,-2.75200004e-006,      -0.006
,,,-2.75040004e-006,       0.006
,,,-2.74880004e-006,       0.002
,,,-2.74720004e-006,      -0.002
,,,-2.74560004e-006,       0.002
,,,-2.74400004e-006,       0.006
,,,-2.74240004e-006,       0.002
,,,-2.74080004e-006,       0.002
,,,-2.73920004e-006,      -0.002
,,,-2.73760004e-006,       0.006
,,,-2.73600004e-006,      -0.002
,,,-2.73440004e-006,      -0.002
,,,-2.73280004e-006,      -0.002
,,,-2.73120004e-006,       0.002
,,,-2.72960004e-006,       0.002
,,,-2.72800004e-006,       0.002
,,,-2.72640004e-006,       0.006
,,,-2.72480004e-006,       0.002
,,,-2.72320004e-006,       0.002
,,,-2.72160004e-006,       0.002
,,,-2.72000004e-006,       0.002
,,,-2.71840004e-006,       0.006
,,,-2.71680004e-006,       0.002
,,,-2.71520004e-006,      -0.002
,,,-2.71360004e-006,       0.002
,,,-2.71200004e-006,        0.01
,,,-2.71040004e-006,      -0.002
,,,-2.70880004e-006,       0.002
,,,-2.70720004e-006,       0.006
,,,-2.70560004e-006,       0.002
,,,-2.70400004e-006,       0.002
,,,-2.70240004e-006,      -0.002
,,,-2.70080004e-006,       0.002
,,,-2.69920004e-006,       0.002
,,,-2.69760004e-006,       0.006
,,,-2.69600004e-006,      -0.002
,,,-2.69440004e-006,      -0.002
,,,-2.69280004e-006,       0.006
,,,-2.69120004e-006,       0.006
,,,-2.68960004e-006,       0.002
,,,-2.68800004e-006,      -0.002
,,,-2.68640004e-006,       0.002
,,,-2.68480004e-006,       0.002
,,,-2.68320004e-006,       0.006
,,,-2.68160004e-006,       0.002
,,,-2.68000004e-006,       0.006
,,,-2.67840004e-006,       0.002
,,,-2.67680004e-006,       0.002
,,,-2.67520004e-006,       0.002
,,,-2.67360004e-006,      -0.002
,,,-2.67200004e-006,       0.002
,,,-2.67040004e-006,      -0.002
,,,-2.66880004e-006,       0.002
,,,-2.66720004e-006,       0.002
,,,-2.66560004e-006,      -0.006
,,,-2.66400004e-006,       0.002
,,,-2.66240004e-006,      -0.002
,,,-2.66080004e-006,       0.002
,,,-2.65920004e-006,       0.002
,,,-2.65760004e-006,      -0.006
,,,-2.65600004e-006,       0.002
,,,-2.65440004e-006,      -0.002
,,,-2.65280004e-006,       0.002
,,,-2.65120004e-006,       0.002
,,,-2.64960004e-006,       0.002
,,,-2.64800004e-006,       0.002
,,,-2.64640004e-006,      -0.002
,,,-2.64480004e-006,      -0.002
,,,-2.64320004e-006,       0.002
,,,-2.64160004e-006,       0.002
,,,-2.64000004e-006,       0.006
,,,-2.63840004e-006,       0.002
,,,-2.63680004e-006,       0.006
,,,-2.63520004e-006,      -0.006
,,,-2.63360004e-006,       0.006
,,,-2.63200004e-006,       0.002
,,,-2.63040004e-006,       0.002
,,,-2.62880004e-006,      -0.002
,,,-2.62720004e-006,       0.002
,,,-2.62560004e-006,      -0.002
,,,-2.62400004e-006,      -0.006
,,,-2.62240004e-006,       0.006
,,,-2.62080003e-006,       0.006
,,,-2.61920003e-006,      -0.002
,,,-2.61760003e-006,       0.002
,,,-2.61600003e-006,       0.002
,,,-2.61440003e-006,       0.002
,,,-2.61280003e-006,       0.006
,,,-2.61120003e-006,      -0.002
,,,-2.60960003e-006,       0.002
,,,-2.60800003e-006,       0.002
,,,-2.60640003e-006,       0.002
,,,-2.60480003e-006,      -0.002
,,,-2.60320003e-006,       0.006
,,,-2.60160003e-006,       0.002
,,,-2.60000003e-006,       0.002
,,,-2.59840003e-006,       0.002
,,,-2.59680003e-006,       0.006
,,,-2.59520003e-006,      -0.002
,,,-2.59360003e-006,       0.002
,,,-2.59200003e-006,      -0.006
,,,-2.59040003e-006,       0.002
,,,-2.58880003e-006,       0.006
,,,-2.58720003e-006,       0.002
,,,-2.58560003e-006,       0.006
,,,-2.58400003e-006,       0.006
,,,-2.58240003e-006,       0.002
,,,-2.58080003e-006,      -0.002
,,,-2.57920003e-006,       0.002
,,,-2.57760003e-006,      -0.002
,,,-2.57600003e-006,      -0.006
,,,-2.57440003e-006,       0.006
,,,-2.57280003e-006,       0.002
,,,-2.57120003e-006,       0.006
,,,-2.56960003e-006,       0.002
,,,-2.56800003e-006,      -0.002
,,,-2.56640003e-006,       0.002
,,,-2.56480003e-006,       0.002
,,,-2.56320003e-006,      -0.002
,,,-2.56160003e-006,      -0.002
,,,-2.56000003e-006,      -0.002
,,,-2.55840003e-006,       0.002
,,,-2.55680003e-006,       0.002
,,,-2.55520003e-006,       0.002
,,,-2.55360003e-006,       0.002
,,,-2.55200003e-006,       0.002
,,,-2.55040003e-006,       0.002
,,,-2.54880003e-006,       0.002
,,,-2.54720003e-006,       0.002
,,,-2.54560003e-006,       0.002
,,,-2.54400003e-006,       0.002
,,,-2.54240003e-006,       0.002
,,,-2.54080003e-006,       0.006
,,,-2.53920003e-006,       0.002
,,,-2.53760003e-006,      -0.002
,,,-2.53600003e-006,      -0.002
,,,-2.53440003e-006,      -0.002
,,,-2.53280003e-006,      -0.002
,,,-2.53120003e-006,       0.002
,,,-2.52960003e-006,       0.002
,,,-2.52800003e-006,       0.006
,,,-2.52640003e-006,      -0.002
,,,-2.52480003e-006,       0.006
,,,-2.52320003e-006,       0.006
,,,-2.52160003e-006,       0.002
,,,-2.52000003e-006,      -0.002
,,,-2.51840003e-006,       0.014
,,,-2.51680003e-006,       0.002
,,,-2.51520003e-006,      -0.014
,,,-2.51360003e-006,      -0.002
,,,-2.51200003e-006,       0.026
,,,-2.51040003e-006,       0.006
,,,-2.50880003e-006,      -0.014
,,,-2.50720003e-006,       0.038
,,,-2.50560003e-006,       0.194
,,,-2.50400003e-006,   0.5139844
,,,-2.50240003e-006,        0.03
,,,-2.50080003e-006,      -0.098
,,,-2.49920003e-006,       0.346
,,,-2.49760003e-006,       0.314
,,,-2.49600003e-006,       0.334
,,,-2.49440003e-006,       0.046
,,,-2.49280003e-006,       0.234
,,,-2.49120003e-006,       0.498
,,,-2.48960003e-006,       0.302
,,,-2.48800003e-006,        0.09
,,,-2.48640003e-006,       0.234
,,,-2.48480003e-006,       0.366
,,,-2.48320003e-006,       0.382
,,,-2.48160003e-006,       0.418
,,,-2.48000003e-006,       0.262
,,,-2.47840003e-006,        0.31
,,,-2.47680003e-006,       0.286
,,,-2.47520003e-006,        0.41
,,,-2.47360003e-006,       0.314
,,,-2.47200003e-006,       0.214
,,,-2.47040003e-006,       0.314
,,,-2.46880003e-006,       0.354
,,,-2.46720003e-006,       0.254
,,,-2.46560003e-006,        0.37
,,,-2.46400003e-006,       0.266
,,,-2.46240003e-006,       0.318
,,,-2.46080003e-006,        0.35
