CalibrationOct2023/RogCalibOct23-c2001.csv

"Record Length",6250,"Points",-2.76000004e-006,2.235174e-008
"Sample Interval",1.60000002e-009,s,-2.75840004e-006,2.235174e-008
"Trigger Point",1725,"Samples",-2.75680004e-006, -0.03999998
"Trigger Time",1.28315698e-009,s,-2.75520004e-006,  0.04000002
"",,,-2.75360004e-006,  0.08000002
"Horizontal Offset",-2.76000004e-006,s,-2.75200004e-006,2.235174e-008
,,,-2.75040004e-006,2.235174e-008
,,,-2.74880004e-006, -0.03999998
,,,-2.74720004e-006,  0.04000002
,,,-2.74560004e-006,2.235174e-008
,,,-2.74400004e-006, -0.03999998
,,,-2.74240004e-006,  0.08000002
,,,-2.74080004e-006,  0.04000002
,,,-2.73920004e-006,  0.04000002
,,,-2.73760004e-006,2.235174e-008
,,,-2.73600004e-006,2.235174e-008
,,,-2.73440004e-006, -0.03999998
,,,-2.73280004e-006,2.235174e-008
,,,-2.73120004e-006,2.235174e-008
,,,-2.72960004e-006,2.235174e-008
,,,-2.72800004e-006,2.235174e-008
,,,-2.72640004e-006,  0.04000002
,,,-2.72480004e-006,  0.04000002
,,,-2.72320004e-006,2.235174e-008
,,,-2.72160004e-006,  0.08000002
,,,-2.72000004e-006,2.235174e-008
,,,-2.71840004e-006,2.235174e-008
,,,-2.71680004e-006,2.235174e-008
,,,-2.71520004e-006,  0.04000002
,,,-2.71360004e-006, -0.03999998
,,,-2.71200004e-006,2.235174e-008
,,,-2.71040004e-006,  0.04000002
,,,-2.70880004e-006,  0.04000002
,,,-2.70720004e-006,  0.04000002
,,,-2.70560004e-006,  0.04000002
,,,-2.70400004e-006,2.235174e-008
,,,-2.70240004e-006, -0.03999998
,,,-2.70080004e-006,  0.04000002
,,,-2.69920004e-006,  0.04000002
,,,-2.69760004e-006,2.235174e-008
,,,-2.69600004e-006,2.235174e-008
,,,-2.69440004e-006,  0.04000002
,,,-2.69280004e-006,2.235174e-008
,,,-2.69120004e-006, -0.03999998
,,,-2.68960004e-006,2.235174e-008
,,,-2.68800004e-006,  0.04000002
,,,-2.68640004e-006,  0.04000002
,,,-2.68480004e-006,2.235174e-008
,,,-2.68320004e-006,2.235174e-008
,,,-2.68160004e-006,  0.04000002
,,,-2.68000004e-006,2.235174e-008
,,,-2.67840004e-006,  0.08000002
,,,-2.67680004e-006,  0.04000002
,,,-2.67520004e-006,  0.04000002
,,,-2.67360004e-006,2.235174e-008
,,,-2.67200004e-006,2.235174e-008
,,,-2.67040004e-006,  0.04000002
,,,-2.66880004e-006,  0.04000002
,,,-2.66720004e-006,2.235174e-008
,,,-2.66560004e-006,  0.04000002
,,,-2.66400004e-006,2.235174e-008
,,,-2.66240004e-006, -0.03999998
,,,-2.66080004e-006, -0.03999998
,,,-2.65920004e-006,  0.08000002
,,,-2.65760004e-006,  0.04000002
,,,-2.65600004e-006,  0.04000002
,,,-2.65440004e-006, -0.03999998
,,,-2.65280004e-006,  0.08000002
,,,-2.65120004e-006,  0.04000002
,,,-2.64960004e-006,  0.04000002
,,,-2.64800004e-006,2.235174e-008
,,,-2.64640004e-006,2.235174e-008
,,,-2.64480004e-006,  0.04000002
,,,-2.64320004e-006,  0.04000002
,,,-2.64160004e-006,2.235174e-008
,,,-2.64000004e-006,2.235174e-008
,,,-2.63840004e-006,2.235174e-008
,,,-2.63680004e-006,  0.04000002
,,,-2.63520004e-006,  0.08000002
,,,-2.63360004e-006, -0.03999998
,,,-2.63200004e-006,2.235174e-008
,,,-2.63040004e-006,2.235174e-008
,,,-2.62880004e-006,2.235174e-008
,,,-2.62720004e-006,2.235174e-008
,,,-2.62560004e-006,  0.04000002
,,,-2.62400004e-006, -0.03999998
,,,-2.62240004e-006,  0.04000002
,,,-2.62080003e-006,2.235174e-008
,,,-2.61920003e-006,2.235174e-008
,,,-2.61760003e-006,  0.04000002
,,,-2.61600003e-006,2.235174e-008
,,,-2.61440003e-006,  0.04000002
,,,-2.61280003e-006,  0.04000002
,,,-2.61120003e-006,  0.04000002
,,,-2.60960003e-006,  0.08000002
,,,-2.60800003e-006,2.235174e-008
,,,-2.60640003e-006,  0.08000002
,,,-2.60480003e-006,2.235174e-008
,,,-2.60320003e-006, -0.03999998
,,,-2.60160003e-006,  0.04000002
,,,-2.60000003e-006, -0.03999998
,,,-2.59840003e-006,  0.04000002
,,,-2.59680003e-006,2.235174e-008
,,,-2.59520003e-006,2.235174e-008
,,,-2.59360003e-006, -0.03999998
,,,-2.59200003e-006,  0.04000002
,,,-2.59040003e-006,  0.04000002
,,,-2.58880003e-006,2.235174e-008
,,,-2.58720003e-006, -0.03999998
,,,-2.58560003e-006,  0.04000002
,,,-2.58400003e-006,  0.04000002
,,,-2.58240003e-006,  0.04000002
,,,-2.58080003e-006, -0.03999998
,,,-2.57920003e-006,2.235174e-008
,,,-2.57760003e-006,  0.04000002
,,,-2.57600003e-006,2.235174e-008
,,,-2.57440003e-006,2.235174e-008
,,,-2.57280003e-006,  0.04000002
,,,-2.57120003e-006,2.235174e-008
,,,-2.56960003e-006,2.235174e-008
,,,-2.56800003e-006, -0.03999998
,,,-2.56640003e-006,2.235174e-008
,,,-2.56480003e-006,2.235174e-008
,,,-2.56320003e-006,        0.12
,,,-2.56160003e-006,2.235174e-008
,,,-2.56000003e-006,  0.04000002
,,,-2.55840003e-006,  0.04000002
,,,-2.55680003e-006, -0.03999998
,,,-2.55520003e-006,2.235174e-008
,,,-2.55360003e-006,2.235174e-008
,,,-2.55200003e-006,2.235174e-008
,,,-2.55040003e-006, -0.03999998
,,,-2.54880003e-006,2.235174e-008
,,,-2.54720003e-006,2.235174e-008
,,,-2.54560003e-006,  0.04000002
,,,-2.54400003e-006,  0.04000002
,,,-2.54240003e-006,  0.04000002
,,,-2.54080003e-006,  0.04000002
,,,-2.53920003e-006,  0.04000002
,,,-2.53760003e-006,  0.04000002
,,,-2.53600003e-006,2.235174e-008
,,,-2.53440003e-006,2.235174e-008
,,,-2.53280003e-006,2.235174e-008
,,,-2.53120003e-006,2.235174e-008
,,,-2.52960003e-006, -0.03999998
,,,-2.52800003e-006,  0.04000002
,,,-2.52640003e-006,  0.04000002
,,,-2.52480003e-006,  0.04000002
,,,-2.52320003e-006,  0.04000002
,,,-2.52160003e-006,  0.04000002
,,,-2.52000003e-006,  0.04000002
,,,-2.51840003e-006,  0.04000002
,,,-2.51680003e-006,2.235174e-008
,,,-2.51520003e-006,  0.08000002
,,,-2.51360003e-006,        0.44
,,,-2.51200003e-006,         0.4
,,,-2.51040003e-006,       -0.16
,,,-2.50880003e-006,        0.24
,,,-2.50720003e-006,         0.4
,,,-2.50560003e-006,         0.4
,,,-2.50400003e-006,        0.28
,,,-2.50240003e-006,  0.04000002
,,,-2.50080003e-006,        0.44
,,,-2.49920003e-006,        0.52
,,,-2.49760003e-006,        0.28
,,,-2.49600003e-006,         0.2
,,,-2.49440003e-006,        0.32
,,,-2.49280003e-006,        0.44
,,,-2.49120003e-006,         0.4
,,,-2.48960003e-006,         0.4
,,,-2.48800003e-006,        0.24
,,,-2.48640003e-006,        0.28
,,,-2.48480003e-006,        0.32
,,,-2.48320003e-006,        0.36
,,,-2.48160003e-006,         0.2
,,,-2.48000003e-006,        0.28
,,,-2.47840003e-006,         0.4
,,,-2.47680003e-006,         0.2
,,,-2.47520003e-006,        0.36
,,,-2.47360003e-006,        0.32
,,,-2.47200003e-006,        0.32
,,,-2.47040003e-006,        0.36
,,,-2.46880003e-006,        0.32
,,,-2.46720003e-006,        0.36
,,,-2.46560003e-006,         0.4
,,,-2.46400003e-006,        0.28
,,,-2.46240003e-006,        0.36
,,,-2.46080003e-006,         0.4
,,,-2.45920003e-006,        0.28
,,,-2.45760003e-006,        0.32
,,,-2.45600003e-006,        0.32
,,,-2.45440003e-006,        0.28
,,,-2.45280003e-006,        0.32
,,,-2.45120003e-006,         0.4
,,,-2.44960003e-006,        0.36
,,,-2.44800003e-006,        0.36
,,,-2.44640003e-006,        0.36
,,,-2.44480003e-006,        0.32
,,,-2.44320003e-006,        0.28
,,,-2.44160003e-006,        0.36
,,,-2.44000003e-006,        0.36
,,,-2.43840003e-006,        0.28
,,,-2.43680003e-006,        0.36
,,,-2.43520003e-006,        0.32
,,,-2.43360003e-006,         0.4
,,,-2.43200003e-006,        0.32
,,,-2.43040003e-006,        0.32
,,,-2.42880003e-006,        0.28
,,,-2.42720003e-006,        0.32
,,,-2.42560003e-006,        0.36
,,,-2.42400003e-006,        0.36
,,,-2.42240003e-006,        0.36
,,,-2.42080003e-006,        0.32
,,,-2.41920003e-006,        0.36
,,,-2.41760003e-006,        0.32
,,,-2.41600003e-006,        0.32
,,,-2.41440003e-006,        0.32
,,,-2.41280003e-006,        0.36
,,,-2.41120003e-006,        0.32
,,,-2.40960003e-006,        0.32
,,,-2.40800003e-006,        0.32
,,,-2.40640003e-006,        0.36
,,,-2.40480003e-006,        0.36
,,,-2.40320003e-006,        0.24
,,,-2.40160003e-006,        0.36
,,,-2.40000003e-006,        0.36
,,,-2.39840003e-006,        0.32
,,,-2.39680003e-006,        0.28
,,,-2.39520003e-006,        0.32
,,,-2.39360003e-006,        0.36
,,,-2.39200003e-006,        0.36
,,,-2.39040003e-006,        0.28
,,,-2.38880003e-006,        0.32
,,,-2.38720003e-006,        0.32
,,,-2.38560003e-006,        0.32
,,,-2.38400003e-006,        0.32
,,,-2.38240003e-006,        0.36
,,,-2.38080003e-006,        0.32
,,,-2.37920003e-006,        0.32
,,,-2.37760003e-006,        0.32
,,,-2.37600003e-006,        0.32
,,,-2.37440003e-006,        0.36
,,,-2.37280003e-006,        0.36
,,,-2.37120003e-006,        0.36
,,,-2.36960003e-006,        0.32
,,,-2.36800003e-006,         0.4
,,,-2.36640003e-006,        0.24
,,,-2.36480003e-006,        0.36
,,,-2.36320003e-006,        0.36
,,,-2.36160003e-006,        0.32
,,,-2.36000003e-006,        0.36
,,,-2.35840003e-006,        0.36
,,,-2.35680003e-006,        0.32
,,,-2.35520003e-006,        0.36
,,,-2.35360003e-006,        0.32
,,,-2.35200003e-006,         0.4
,,,-2.35040003e-006,        0.32
,,,-2.34880003e-006,         0.4
,,,-2.34720003e-006,        0.36
,,,-2.34560003e-006,        0.28
,,,-2.34400003e-006,        0.32
,,,-2.34240003e-006,        0.36
,,,-2.34080003e-006,        0.36
,,,-2.33920003e-006,        0.36
,,,-2.33760003e-006,        0.32
,,,-2.33600003e-006,         0.4
,,,-2.33440003e-006,        0.32
,,,-2.33280003e-006,        0.32
,,,-2.33120003e-006,        0.28
,,,-2.32960003e-006,        0.28
,,,-2.32800003e-006,        0.32
,,,-2.32640003e-006,        0.36
,,,-2.32480003e-006,         0.4
,,,-2.32320003e-006,        0.32
,,,-2.32160003e-006,        0.32
,,,-2.32000003e-006,         0.4
,,,-2.31840003e-006,        0.28
,,,-2.31680003e-006,        0.28
,,,-2.31520003e-006,        0.36
,,,-2.31360003e-006,         0.4
,,,-2.31200003e-006,         0.4
,,,-2.31040003e-006,        0.28
,,,-2.30880003e-006,        0.28
,,,-2.30720003e-006,        0.32
,,,-2.30560003e-006,        0.36
,,,-2.30400003e-006,        0.32
,,,-2.30240003e-006,        0.32
,,,-2.30080003e-006,        0.32
,,,-2.29920003e-006,        0.32
,,,-2.29760003e-006,        0.32
,,,-2.29600003e-006,        0.28
,,,-2.29440003e-006,        0.36
,,,-2.29280003e-006,        0.32
,,,-2.29120003e-006,        0.32
,,,-2.28960003e-006,        0.32
,,,-2.28800003e-006,        0.32
,,,-2.28640003e-006,         0.4
,,,-2.28480003e-006,         0.4
,,,-2.28320003e-006,        0.32
,,,-2.28160003e-006,        0.32
,,,-2.28000003e-006,        0.32
,,,-2.27840003e-006,        0.32
,,,-2.27680003e-006,        0.32
,,,-2.27520003e-006,        0.28
,,,-2.27360003e-006,        0.32
,,,-2.27200003e-006,        0.32
,,,-2.27040003e-006,        0.28
,,,-2.26880003e-006,        0.36
,,,-2.26720003e-006,        0.36
,,,-2.26560003e-006,        0.32
,,,-2.26400003e-006,        0.32
,,,-2.26240003e-006,        0.32
,,,-2.26080003e-006,         0.4
,,,-2.25920003e-006,        0.36
,,,-2.25760003e-006,        0.28
,,,-2.25600003e-006,        0.28
,,,-2.25440003e-006,        0.28
,,,-2.25280003e-006,        0.36
,,,-2.25120003e-006,        0.32
,,,-2.24960003e-006,        0.36
,,,-2.24800003e-006,        0.36
,,,-2.24640003e-006,        0.36
,,,-2.24480003e-006,        0.28
,,,-2.24320003e-006,        0.32
,,,-2.24160003e-006,        0.36
,,,-2.24000003e-006,        0.32
,,,-2.23840003e-006,        0.36
,,,-2.23680003e-006,        0.36
,,,-2.23520003e-006,        0.32
,,,-2.23360003e-006,        0.36
,,,-2.23200003e-006,        0.32
,,,-2.23040003e-006,        0.36
,,,-2.22880003e-006,        0.32
,,,-2.22720003e-006,        0.36
,,,-2.22560003e-006,        0.36
,,,-2.22400003e-006,        0.28
,,,-2.22240003e-006,        0.36
,,,-2.22080003e-006,        0.32
,,,-2.21920003e-006,        0.28
,,,-2.21760003e-006,        0.32
,,,-2.21600003e-006,        0.32
,,,-2.21440003e-006,        0.36
,,,-2.21280003e-006,        0.28
,,,-2.21120003e-006,        0.32
,,,-2.20960003e-006,        0.24
,,,-2.20800003e-006,        0.36
,,,-2.20640003e-006,        0.24
,,,-2.20480003e-006,        0.32
,,,-2.20320003e-006,        0.32
,,,-2.20160003e-006,        0.32
,,,-2.20000003e-006,        0.36
,,,-2.19840003e-006,        0.32
,,,-2.19680003e-006,        0.32
,,,-2.19520003e-006,        0.32
,,,-2.19360003e-006,        0.32
,,,-2.19200003e-006,        0.36
,,,-2.19040003e-006,        0.32
,,,-2.18880003e-006,        0.36
,,,-2.18720003e-006,        0.32
,,,-2.18560003e-006,        0.32
,,,-2.18400003e-006,        0.32
,,,-2.18240003e-006,        0.32
,,,-2.18080003e-006,        0.32
,,,-2.17920003e-006,        0.24
,,,-2.17760003e-006,        0.36
,,,-2.17600003e-006,        0.36
,,,-2.17440003e-006,        0.32
,,,-2.17280003e-006,        0.32
,,,-2.17120003e-006,        0.36
,,,-2.16960003e-006,        0.28
,,,-2.16800003e-006,        0.28
,,,-2.16640003e-006,        0.28
,,,-2.16480003e-006,        0.24
,,,-2.16320003e-006,        0.28
,,,-2.16160003e-006,        0.32
,,,-2.16000003e-006,        0.32
,,,-2.15840003e-006,        0.36
,,,-2.15680003e-006,        0.32
,,,-2.15520003e-006,        0.36
,,,-2.15360003e-006,        0.36
,,,-2.15200003e-006,        0.32
,,,-2.15040003e-006,        0.32
,,,-2.14880003e-006,        0.28
,,,-2.14720003e-006,        0.28
,,,-2.14560003e-006,        0.28
,,,-2.14400003e-006,        0.28
,,,-2.14240003e-006,        0.36
,,,-2.14080003e-006,        0.32
,,,-2.13920003e-006,        0.28
,,,-2.13760003e-006,        0.32
,,,-2.13600003e-006,        0.36
,,,-2.13440003e-006,        0.32
,,,-2.13280003e-006,        0.28
,,,-2.13120003e-006,        0.32
,,,-2.12960003e-006,        0.32
,,,-2.12800003e-006,        0.32
,,,-2.12640003e-006,        0.28
,,,-2.12480003e-006,        0.32
,,,-2.12320003e-006,        0.28
,,,-2.12160003e-006,        0.32
,,,-2.12000003e-006,        0.28
,,,-2.11840003e-006,        0.32
,,,-2.11680003e-006,        0.28
,,,-2.11520003e-006,        0.32
,,,-2.11360003e-006,        0.32
,,,-2.11200003e-006,        0.32
,,,-2.11040003e-006,        0.32
,,,-2.10880003e-006,        0.32
,,,-2.10720003e-006,        0.36
,,,-2.10560003e-006,        0.36
,,,-2.10400003e-006,        0.28
,,,-2.10240003e-006,        0.24
,,,-2.10080003e-006,        0.32
,,,-2.09920003e-006,        0.32
,,,-2.09760003e-006,        0.28
,,,-2.09600003e-006,        0.32
,,,-2.09440003e-006,        0.24
,,,-2.09280003e-006,        0.32
,,,-2.09120003e-006,        0.32
,,,-2.08960003e-006,        0.28
,,,-2.08800003e-006,        0.32
,,,-2.08640003e-006,        0.28
,,,-2.08480003e-006,        0.32
,,,-2.08320003e-006,        0.36
,,,-2.08160003e-006,        0.32
,,,-2.08000003e-006,        0.28
,,,-2.07840003e-006,        0.32
,,,-2.07680003e-006,        0.32
,,,-2.07520003e-006,        0.32
,,,-2.07360003e-006,        0.28
,,,-2.07200003e-006,        0.28
,,,-2.07040003e-006,        0.32
,,,-2.06880003e-006,        0.32
,,,-2.06720003e-006,        0.28
,,,-2.06560003e-006,        0.28
,,,-2.06400003e-006,        0.32
,,,-2.06240003e-006,        0.28
,,,-2.06080003e-006,        0.32
,,,-2.05920003e-006,        0.24
,,,-2.05760003e-006,        0.28
,,,-2.05600003e-006,        0.28
,,,-2.05440003e-006,        0.32
,,,-2.05280003e-006,        0.28
,,,-2.05120003e-006,        0.28
,,,-2.04960003e-006,        0.28
,,,-2.04800003e-006,        0.28
,,,-2.04640003e-006,        0.28
,,,-2.04480003e-006,        0.32
,,,-2.04320003e-006,        0.36
,,,-2.04160003e-006,        0.24
,,,-2.04000003e-006,        0.24
,,,-2.03840003e-006,        0.32
,,,-2.03680003e-006,        0.28
,,,-2.03520003e-006,        0.28
,,,-2.03360003e-006,        0.28
,,,-2.03200003e-006,        0.28
,,,-2.03040003e-006,        0.28
,,,-2.02880003e-006,        0.32
,,,-2.02720003e-006,        0.24
,,,-2.02560003e-006,        0.28
,,,-2.02400003e-006,        0.28
,,,-2.02240003e-006,        0.28
,,,-2.02080003e-006,        0.28
,,,-2.01920003e-006,        0.32
,,,-2.01760003e-006,        0.24
,,,-2.01600003e-006,        0.24
,,,-2.01440003e-006,        0.28
,,,-2.01280003e-006,        0.28
,,,-2.01120003e-006,        0.32
,,,-2.00960003e-006,        0.32
,,,-2.00800003e-006,        0.28
,,,-2.00640003e-006,        0.24
,,,-2.00480003e-006,        0.28
,,,-2.00320003e-006,        0.24
,,,-2.00160003e-006,        0.28
,,,-2.00000003e-006,        0.24
,,,-1.99840003e-006,        0.28
,,,-1.99680003e-006,        0.24
,,,-1.99520003e-006,        0.28
,,,-1.99360003e-006,        0.28
,,,-1.99200003e-006,        0.24
,,,-1.99040003e-006,         0.2
,,,-1.98880003e-006,        0.32
,,,-1.98720003e-006,        0.28
,,,-1.98560003e-006,        0.24
,,,-1.98400003e-006,        0.24
,,,-1.98240003e-006,        0.28
,,,-1.98080003e-006,        0.28
,,,-1.97920003e-006,        0.28
,,,-1.97760003e-006,        0.28
,,,-1.97600003e-006,        0.28
,,,-1.97440003e-006,        0.28
,,,-1.97280003e-006,        0.32
,,,-1.97120003e-006,        0.24
,,,-1.96960003e-006,        0.28
,,,-1.96800003e-006,        0.28
,,,-1.96640003e-006,         0.2
,,,-1.96480003e-006,        0.24
,,,-1.96320003e-006,        0.24
,,,-1.96160003e-006,        0.32
,,,-1.96000003e-006,        0.32
,,,-1.95840003e-006,        0.28
,,,-1.95680003e-006,        0.24
,,,-1.95520003e-006,        0.24
,,,-1.95360003e-006,        0.24
,,,-1.95200003e-006,        0.28
,,,-1.95040003e-006,        0.24
,,,-1.94880003e-006,         0.2
,,,-1.94720003e-006,        0.28
,,,-1.94560003e-006,        0.24
,,,-1.94400003e-006,        0.24
,,,-1.94240003e-006,        0.24
,,,-1.94080003e-006,        0.24
,,,-1.93920003e-006,        0.24
,,,-1.93760003e-006,         0.2
,,,-1.93600003e-006,        0.28
,,,-1.93440003e-006,        0.32
,,,-1.93280003e-006,        0.28
,,,-1.93120003e-006,        0.28
,,,-1.92960003e-006,        0.24
,,,-1.92800003e-006,        0.24
,,,-1.92640003e-006,        0.16
,,,-1.92480003e-006,        0.24
,,,-1.92320003e-006,        0.24
,,,-1.92160003e-006,        0.24
,,,-1.92000003e-006,        0.32
,,,-1.91840003e-006,         0.2
,,,-1.91680003e-006,        0.28
,,,-1.91520003e-006,        0.24
,,,-1.91360003e-006,        0.24
,,,-1.91200003e-006,        0.28
,,,-1.91040003e-006,        0.24
,,,-1.90880003e-006,        0.24
,,,-1.90720003e-006,        0.32
,,,-1.90560003e-006,        0.32
,,,-1.90400003e-006,         0.2
,,,-1.90240003e-006,        0.28
,,,-1.90080003e-006,        0.24
,,,-1.89920003e-006,        0.24
,,,-1.89760003e-006,        0.24
,,,-1.89600003e-006,         0.2
,,,-1.89440003e-006,        0.24
,,,-1.89280003e-006,         0.2
,,,-1.89120003e-006,        0.28
,,,-1.88960003e-006,        0.32
,,,-1.88800003e-006,        0.28
,,,-1.88640003e-006,         0.2
,,,-1.88480003e-006,        0.24
,,,-1.88320003e-006,        0.32
,,,-1.88160003e-006,         0.2
,,,-1.88000003e-006,         0.2
,,,-1.87840003e-006,        0.24
,,,-1.87680003e-006,        0.24
,,,-1.87520003e-006,         0.2
,,,-1.87360003e-006,         0.2
,,,-1.87200002e-006,         0.2
,,,-1.87040002e-006,         0.2
,,,-1.86880002e-006,        0.28
,,,-1.86720002e-006,        0.28
,,,-1.86560002e-006,         0.2
,,,-1.86400002e-006,        0.24
,,,-1.86240002e-006,         0.2
,,,-1.86080002e-006,        0.24
,,,-1.85920002e-006,        0.24
,,,-1.85760002e-006,        0.28
,,,-1.85600002e-006,        0.28
,,,-1.85440002e-006,        0.24
,,,-1.85280002e-006,        0.24
,,,-1.85120002e-006,        0.24
,,,-1.84960002e-006,        0.28
,,,-1.84800002e-006,        0.28
,,,-1.84640002e-006,        0.24
,,,-1.84480002e-006,        0.24
,,,-1.84320002e-006,        0.28
,,,-1.84160002e-006,        0.24
,,,-1.84000002e-006,        0.24
,,,-1.83840002e-006,         0.2
,,,-1.83680002e-006,        0.24
,,,-1.83520002e-006,        0.16
,,,-1.83360002e-006,        0.16
,,,-1.83200002e-006,        0.24
,,,-1.83040002e-006,        0.24
,,,-1.82880002e-006,        0.16
,,,-1.82720002e-006,         0.2
,,,-1.82560002e-006,         0.2
,,,-1.82400002e-006,        0.24
,,,-1.82240002e-006,        0.16
,,,-1.82080002e-006,        0.24
,,,-1.81920002e-006,        0.16
,,,-1.81760002e-006,        0.24
,,,-1.81600002e-006,        0.28
,,,-1.81440002e-006,         0.2
,,,-1.81280002e-006,        0.24
,,,-1.81120002e-006,        0.16
,,,-1.80960002e-006,         0.2
,,,-1.80800002e-006,         0.2
,,,-1.80640002e-006,         0.2
,,,-1.80480002e-006,         0.2
,,,-1.80320002e-006,         0.2
