CalibrationOct2023/101023/101023s6c2b5_0.csv

"Record Length",6250,"Points",-2.00000003e-006,       0.002
"Sample Interval",1.60000002e-009,s,-1.99840003e-006,       0.006
"Trigger Point",1250,"Samples",-1.99680003e-006,       0.002
"Trigger Time",1.21115721e-009,s,-1.99520003e-006,       0.002
"",,,-1.99360003e-006,       0.002
"Horizontal Offset",-2.00000003e-006,s,-1.99200003e-006,       0.002
,,,-1.99040003e-006,       0.006
,,,-1.98880003e-006,       0.002
,,,-1.98720003e-006,       0.006
,,,-1.98560003e-006,       0.002
,,,-1.98400003e-006,       0.002
,,,-1.98240003e-006,       0.002
,,,-1.98080003e-006,      -0.002
,,,-1.97920003e-006,      -0.002
,,,-1.97760003e-006,       0.006
,,,-1.97600003e-006,       0.002
,,,-1.97440003e-006,        0.01
,,,-1.97280003e-006,       0.002
,,,-1.97120003e-006,       0.002
,,,-1.96960003e-006,        0.01
,,,-1.96800003e-006,       0.002
,,,-1.96640003e-006,      -0.002
,,,-1.96480003e-006,        0.03
,,,-1.96320003e-006,       0.262
,,,-1.96160003e-006,   0.5139844
,,,-1.96000003e-006,      -0.066
,,,-1.95840003e-006,       -0.05
,,,-1.95680003e-006,       0.082
,,,-1.95520003e-006,       0.338
,,,-1.95360003e-006,   0.5139844
,,,-1.95200003e-006,       0.106
,,,-1.95040003e-006,       0.026
,,,-1.94880003e-006,       0.178
,,,-1.94720003e-006,       0.322
,,,-1.94560003e-006,       0.474
,,,-1.94400003e-006,       0.334
,,,-1.94240003e-006,        0.15
,,,-1.94080003e-006,       0.266
,,,-1.93920003e-006,        0.49
,,,-1.93760003e-006,       0.426
,,,-1.93600003e-006,       0.238
,,,-1.93440003e-006,       0.134
,,,-1.93280003e-006,       0.314
,,,-1.93120003e-006,       0.422
,,,-1.92960003e-006,       0.374
,,,-1.92800003e-006,       0.266
,,,-1.92640003e-006,       0.182
,,,-1.92480003e-006,       0.278
,,,-1.92320003e-006,       0.442
,,,-1.92160003e-006,       0.374
,,,-1.92000003e-006,       0.242
,,,-1.91840003e-006,       0.278
,,,-1.91680003e-006,       0.346
,,,-1.91520003e-006,       0.406
,,,-1.91360003e-006,       0.334
,,,-1.91200003e-006,        0.25
,,,-1.91040003e-006,        0.29
,,,-1.90880003e-006,       0.322
,,,-1.90720003e-006,        0.37
,,,-1.90560003e-006,       0.382
,,,-1.90400003e-006,       0.294
,,,-1.90240003e-006,       0.238
,,,-1.90080003e-006,       0.294
,,,-1.89920003e-006,       0.386
,,,-1.89760003e-006,       0.442
,,,-1.89600003e-006,        0.35
,,,-1.89440003e-006,       0.194
,,,-1.89280003e-006,       0.258
,,,-1.89120003e-006,       0.358
,,,-1.88960003e-006,       0.402
,,,-1.88800003e-006,       0.334
,,,-1.88640003e-006,        0.27
,,,-1.88480003e-006,        0.25
,,,-1.88320003e-006,       0.354
,,,-1.88160003e-006,       0.386
,,,-1.88000003e-006,       0.322
,,,-1.87840003e-006,       0.278
,,,-1.87680003e-006,       0.306
,,,-1.87520003e-006,       0.354
,,,-1.87360003e-006,        0.39
,,,-1.87200002e-006,       0.334
,,,-1.87040002e-006,       0.278
,,,-1.86880002e-006,       0.306
,,,-1.86720002e-006,       0.354
,,,-1.86560002e-006,       0.362
,,,-1.86400002e-006,       0.354
,,,-1.86240002e-006,        0.31
,,,-1.86080002e-006,       0.306
,,,-1.85920002e-006,       0.354
,,,-1.85760002e-006,       0.362
,,,-1.85600002e-006,       0.334
,,,-1.85440002e-006,       0.326
,,,-1.85280002e-006,       0.314
,,,-1.85120002e-006,       0.326
,,,-1.84960002e-006,       0.338
,,,-1.84800002e-006,       0.326
,,,-1.84640002e-006,       0.306
,,,-1.84480002e-006,        0.31
,,,-1.84320002e-006,        0.33
,,,-1.84160002e-006,       0.342
,,,-1.84000002e-006,       0.338
,,,-1.83840002e-006,       0.306
,,,-1.83680002e-006,       0.302
,,,-1.83520002e-006,       0.342
,,,-1.83360002e-006,       0.366
,,,-1.83200002e-006,       0.354
,,,-1.83040002e-006,        0.31
,,,-1.82880002e-006,       0.294
,,,-1.82720002e-006,       0.314
,,,-1.82560002e-006,       0.346
,,,-1.82400002e-006,       0.334
,,,-1.82240002e-006,       0.314
,,,-1.82080002e-006,       0.306
,,,-1.81920002e-006,       0.318
,,,-1.81760002e-006,        0.33
,,,-1.81600002e-006,        0.33
,,,-1.81440002e-006,       0.326
,,,-1.81280002e-006,        0.33
,,,-1.81120002e-006,       0.334
,,,-1.80960002e-006,       0.338
,,,-1.80800002e-006,       0.346
,,,-1.80640002e-006,       0.338
,,,-1.80480002e-006,        0.33
,,,-1.80320002e-006,       0.334
,,,-1.80160002e-006,       0.342
,,,-1.80000002e-006,       0.338
,,,-1.79840002e-006,       0.334
,,,-1.79680002e-006,       0.326
,,,-1.79520002e-006,       0.334
,,,-1.79360002e-006,        0.33
,,,-1.79200002e-006,       0.334
,,,-1.79040002e-006,       0.326
,,,-1.78880002e-006,       0.322
,,,-1.78720002e-006,       0.322
,,,-1.78560002e-006,       0.322
,,,-1.78400002e-006,       0.322
,,,-1.78240002e-006,       0.322
,,,-1.78080002e-006,       0.318
,,,-1.77920002e-006,       0.326
,,,-1.77760002e-006,       0.322
,,,-1.77600002e-006,       0.318
,,,-1.77440002e-006,       0.322
,,,-1.77280002e-006,       0.314
,,,-1.77120002e-006,       0.318
,,,-1.76960002e-006,        0.33
,,,-1.76800002e-006,       0.326
,,,-1.76640002e-006,       0.322
,,,-1.76480002e-006,       0.318
,,,-1.76320002e-006,       0.318
,,,-1.76160002e-006,       0.314
,,,-1.76000002e-006,       0.322
,,,-1.75840002e-006,       0.326
,,,-1.75680002e-006,        0.33
,,,-1.75520002e-006,       0.326
,,,-1.75360002e-006,       0.322
,,,-1.75200002e-006,       0.326
,,,-1.75040002e-006,       0.338
,,,-1.74880002e-006,       0.334
,,,-1.74720002e-006,       0.334
,,,-1.74560002e-006,       0.334
,,,-1.74400002e-006,        0.33
,,,-1.74240002e-006,       0.326
,,,-1.74080002e-006,       0.322
,,,-1.73920002e-006,       0.326
,,,-1.73760002e-006,       0.326
,,,-1.73600002e-006,       0.318
,,,-1.73440002e-006,       0.314
,,,-1.73280002e-006,       0.322
,,,-1.73120002e-006,       0.318
,,,-1.72960002e-006,       0.322
,,,-1.72800002e-006,       0.318
,,,-1.72640002e-006,       0.318
,,,-1.72480002e-006,       0.318
,,,-1.72320002e-006,       0.322
,,,-1.72160002e-006,       0.318
,,,-1.72000002e-006,       0.314
,,,-1.71840002e-006,       0.322
,,,-1.71680002e-006,       0.326
,,,-1.71520002e-006,       0.322
,,,-1.71360002e-006,       0.318
,,,-1.71200002e-006,       0.314
,,,-1.71040002e-006,       0.314
,,,-1.70880002e-006,       0.314
,,,-1.70720002e-006,       0.318
,,,-1.70560002e-006,       0.314
,,,-1.70400002e-006,        0.31
,,,-1.70240002e-006,        0.31
,,,-1.70080002e-006,       0.314
,,,-1.69920002e-006,       0.314
,,,-1.69760002e-006,       0.306
,,,-1.69600002e-006,       0.318
,,,-1.69440002e-006,       0.322
,,,-1.69280002e-006,       0.322
,,,-1.69120002e-006,       0.318
,,,-1.68960002e-006,       0.322
,,,-1.68800002e-006,       0.318
,,,-1.68640002e-006,       0.318
,,,-1.68480002e-006,       0.322
,,,-1.68320002e-006,       0.322
,,,-1.68160002e-006,       0.318
,,,-1.68000002e-006,        0.31
,,,-1.67840002e-006,       0.314
,,,-1.67680002e-006,       0.318
,,,-1.67520002e-006,       0.314
,,,-1.67360002e-006,        0.31
,,,-1.67200002e-006,       0.302
,,,-1.67040002e-006,       0.306
,,,-1.66880002e-006,       0.302
,,,-1.66720002e-006,       0.306
,,,-1.66560002e-006,       0.306
,,,-1.66400002e-006,       0.306
,,,-1.66240002e-006,       0.306
,,,-1.66080002e-006,       0.306
,,,-1.65920002e-006,       0.306
,,,-1.65760002e-006,        0.31
,,,-1.65600002e-006,       0.306
,,,-1.65440002e-006,        0.31
,,,-1.65280002e-006,        0.31
,,,-1.65120002e-006,        0.31
,,,-1.64960002e-006,       0.314
,,,-1.64800002e-006,        0.31
,,,-1.64640002e-006,       0.306
,,,-1.64480002e-006,       0.302
,,,-1.64320002e-006,        0.31
,,,-1.64160002e-006,       0.306
,,,-1.64000002e-006,       0.302
,,,-1.63840002e-006,       0.298
,,,-1.63680002e-006,       0.302
,,,-1.63520002e-006,       0.302
,,,-1.63360002e-006,       0.302
,,,-1.63200002e-006,       0.302
,,,-1.63040002e-006,        0.31
,,,-1.62880002e-006,        0.31
,,,-1.62720002e-006,       0.306
,,,-1.62560002e-006,       0.302
,,,-1.62400002e-006,       0.306
,,,-1.62240002e-006,       0.306
,,,-1.62080002e-006,        0.31
,,,-1.61920002e-006,       0.306
,,,-1.61760002e-006,        0.31
,,,-1.61600002e-006,        0.31
,,,-1.61440002e-006,       0.306
,,,-1.61280002e-006,       0.302
,,,-1.61120002e-006,       0.298
,,,-1.60960002e-006,       0.302
,,,-1.60800002e-006,       0.298
,,,-1.60640002e-006,       0.298
,,,-1.60480002e-006,       0.298
,,,-1.60320002e-006,       0.302
,,,-1.60160002e-006,        0.29
,,,-1.60000002e-006,       0.294
,,,-1.59840002e-006,        0.29
,,,-1.59680002e-006,       0.302
,,,-1.59520002e-006,        0.29
,,,-1.59360002e-006,       0.298
,,,-1.59200002e-006,        0.29
,,,-1.59040002e-006,       0.298
,,,-1.58880002e-006,       0.294
,,,-1.58720002e-006,       0.302
,,,-1.58560002e-006,       0.302
,,,-1.58400002e-006,       0.298
,,,-1.58240002e-006,       0.294
,,,-1.58080002e-006,       0.294
,,,-1.57920002e-006,       0.298
,,,-1.57760002e-006,       0.302
,,,-1.57600002e-006,       0.298
,,,-1.57440002e-006,       0.298
,,,-1.57280002e-006,        0.29
,,,-1.57120002e-006,       0.294
,,,-1.56960002e-006,       0.298
,,,-1.56800002e-006,        0.29
,,,-1.56640002e-006,       0.294
,,,-1.56480002e-006,       0.286
,,,-1.56320002e-006,       0.286
,,,-1.56160002e-006,       0.286
,,,-1.56000002e-006,       0.286
,,,-1.55840002e-006,        0.29
,,,-1.55680002e-006,        0.29
,,,-1.55520002e-006,       0.294
,,,-1.55360002e-006,       0.294
,,,-1.55200002e-006,       0.294
,,,-1.55040002e-006,        0.29
,,,-1.54880002e-006,       0.286
,,,-1.54720002e-006,       0.294
,,,-1.54560002e-006,        0.29
,,,-1.54400002e-006,       0.282
,,,-1.54240002e-006,       0.282
,,,-1.54080002e-006,       0.286
,,,-1.53920002e-006,       0.282
,,,-1.53760002e-006,       0.282
,,,-1.53600002e-006,       0.282
,,,-1.53440002e-006,       0.274
,,,-1.53280002e-006,       0.282
,,,-1.53120002e-006,       0.282
,,,-1.52960002e-006,       0.274
,,,-1.52800002e-006,       0.282
,,,-1.52640002e-006,       0.282
,,,-1.52480002e-006,       0.278
,,,-1.52320002e-006,       0.282
,,,-1.52160002e-006,       0.282
,,,-1.52000002e-006,       0.278
,,,-1.51840002e-006,       0.286
,,,-1.51680002e-006,       0.282
,,,-1.51520002e-006,       0.282
,,,-1.51360002e-006,       0.282
,,,-1.51200002e-006,       0.282
,,,-1.51040002e-006,       0.282
,,,-1.50880002e-006,       0.282
,,,-1.50720002e-006,       0.282
,,,-1.50560002e-006,       0.274
,,,-1.50400002e-006,       0.274
,,,-1.50240002e-006,       0.274
,,,-1.50080002e-006,       0.274
,,,-1.49920002e-006,       0.274
,,,-1.49760002e-006,       0.274
,,,-1.49600002e-006,        0.27
,,,-1.49440002e-006,       0.274
,,,-1.49280002e-006,        0.27
,,,-1.49120002e-006,       0.274
,,,-1.48960002e-006,        0.27
,,,-1.48800002e-006,       0.278
,,,-1.48640002e-006,       0.274
,,,-1.48480002e-006,       0.266
,,,-1.48320002e-006,       0.266
,,,-1.48160002e-006,       0.266
,,,-1.48000002e-006,       0.266
,,,-1.47840002e-006,       0.266
,,,-1.47680002e-006,       0.266
,,,-1.47520002e-006,       0.262
,,,-1.47360002e-006,       0.262
,,,-1.47200002e-006,       0.262
,,,-1.47040002e-006,       0.266
,,,-1.46880002e-006,       0.266
,,,-1.46720002e-006,       0.266
,,,-1.46560002e-006,       0.266
,,,-1.46400002e-006,       0.262
,,,-1.46240002e-006,       0.266
,,,-1.46080002e-006,       0.258
,,,-1.45920002e-006,       0.262
,,,-1.45760002e-006,       0.262
,,,-1.45600002e-006,       0.266
,,,-1.45440002e-006,       0.262
,,,-1.45280002e-006,       0.262
,,,-1.45120002e-006,       0.258
,,,-1.44960002e-006,       0.262
,,,-1.44800002e-006,       0.262
,,,-1.44640002e-006,       0.258
,,,-1.44480002e-006,       0.262
,,,-1.44320002e-006,       0.262
,,,-1.44160002e-006,       0.258
,,,-1.44000002e-006,       0.258
,,,-1.43840002e-006,        0.25
,,,-1.43680002e-006,       0.258
,,,-1.43520002e-006,       0.262
,,,-1.43360002e-006,       0.258
,,,-1.43200002e-006,        0.25
,,,-1.43040002e-006,       0.254
,,,-1.42880002e-006,       0.254
,,,-1.42720002e-006,        0.25
,,,-1.42560002e-006,       0.246
,,,-1.42400002e-006,       0.254
,,,-1.42240002e-006,        0.25
,,,-1.42080002e-006,       0.242
,,,-1.41920002e-006,       0.246
,,,-1.41760002e-006,       0.246
,,,-1.41600002e-006,       0.246
,,,-1.41440002e-006,       0.246
,,,-1.41280002e-006,       0.246
,,,-1.41120002e-006,       0.242
,,,-1.40960002e-006,        0.25
,,,-1.40800002e-006,       0.242
,,,-1.40640002e-006,       0.246
,,,-1.40480002e-006,        0.25
,,,-1.40320002e-006,       0.246
,,,-1.40160002e-006,       0.246
,,,-1.40000002e-006,        0.25
,,,-1.39840002e-006,       0.242
,,,-1.39680002e-006,       0.246
,,,-1.39520002e-006,        0.25
,,,-1.39360002e-006,       0.242
,,,-1.39200002e-006,       0.246
,,,-1.39040002e-006,       0.246
,,,-1.38880002e-006,       0.238
,,,-1.38720002e-006,       0.242
,,,-1.38560002e-006,       0.238
,,,-1.38400002e-006,       0.238
,,,-1.38240002e-006,       0.238
,,,-1.38080002e-006,       0.238
,,,-1.37920002e-006,       0.234
,,,-1.37760002e-006,       0.242
,,,-1.37600002e-006,       0.226
,,,-1.37440002e-006,       0.234
,,,-1.37280002e-006,        0.23
,,,-1.37120002e-006,       0.234
,,,-1.36960002e-006,       0.234
,,,-1.36800002e-006,        0.23
,,,-1.36640002e-006,       0.234
,,,-1.36480002e-006,       0.226
,,,-1.36320002e-006,       0.234
,,,-1.36160002e-006,       0.234
,,,-1.36000002e-006,        0.23
,,,-1.35840002e-006,        0.23
,,,-1.35680002e-006,       0.226
,,,-1.35520002e-006,       0.226
,,,-1.35360002e-006,       0.226
,,,-1.35200002e-006,       0.226
,,,-1.35040002e-006,       0.222
,,,-1.34880002e-006,       0.218
,,,-1.34720002e-006,        0.23
,,,-1.34560002e-006,       0.226
,,,-1.34400002e-006,       0.226
,,,-1.34240002e-006,       0.226
,,,-1.34080002e-006,       0.222
,,,-1.33920002e-006,       0.222
,,,-1.33760002e-006,       0.222
,,,-1.33600002e-006,       0.226
,,,-1.33440002e-006,       0.226
,,,-1.33280002e-006,       0.218
,,,-1.33120002e-006,       0.222
,,,-1.32960002e-006,       0.218
,,,-1.32800002e-006,       0.222
,,,-1.32640002e-006,       0.214
,,,-1.32480002e-006,       0.222
,,,-1.32320002e-006,       0.214
,,,-1.32160002e-006,       0.218
,,,-1.32000002e-006,       0.218
,,,-1.31840002e-006,       0.214
,,,-1.31680002e-006,        0.21
,,,-1.31520002e-006,        0.21
,,,-1.31360002e-006,        0.21
,,,-1.31200002e-006,        0.21
,,,-1.31040002e-006,       0.202
,,,-1.30880002e-006,       0.214
,,,-1.30720002e-006,        0.21
,,,-1.30560002e-006,        0.21
,,,-1.30400002e-006,       0.214
,,,-1.30240002e-006,        0.21
,,,-1.30080002e-006,       0.206
,,,-1.29920002e-006,       0.202
,,,-1.29760002e-006,        0.21
,,,-1.29600002e-006,       0.206
,,,-1.29440002e-006,       0.202
,,,-1.29280002e-006,        0.21
,,,-1.29120002e-006,       0.206
,,,-1.28960002e-006,       0.202
,,,-1.28800002e-006,       0.206
,,,-1.28640002e-006,       0.198
,,,-1.28480002e-006,       0.194
,,,-1.28320002e-006,       0.198
,,,-1.28160002e-006,       0.202
,,,-1.28000002e-006,       0.198
,,,-1.27840002e-006,       0.198
,,,-1.27680002e-006,       0.194
,,,-1.27520002e-006,       0.202
,,,-1.27360002e-006,       0.198
,,,-1.27200002e-006,       0.198
,,,-1.27040002e-006,       0.202
,,,-1.26880002e-006,       0.198
,,,-1.26720002e-006,       0.198
,,,-1.26560002e-006,       0.198
,,,-1.26400002e-006,       0.202
,,,-1.26240002e-006,       0.202
,,,-1.26080002e-006,       0.194
,,,-1.25920002e-006,       0.194
,,,-1.25760002e-006,       0.194
,,,-1.25600002e-006,       0.186
,,,-1.25440002e-006,       0.194
,,,-1.25280002e-006,        0.19
,,,-1.25120002e-006,        0.19
,,,-1.24960002e-006,       0.194
,,,-1.24800002e-006,       0.186
,,,-1.24640002e-006,       0.186
,,,-1.24480002e-006,       0.186
,,,-1.24320002e-006,        0.19
,,,-1.24160002e-006,       0.182
,,,-1.24000002e-006,       0.182
,,,-1.23840002e-006,        0.19
,,,-1.23680002e-006,       0.182
,,,-1.23520002e-006,       0.186
,,,-1.23360002e-006,       0.182
,,,-1.23200002e-006,       0.182
,,,-1.23040002e-006,       0.178
,,,-1.22880002e-006,       0.182
,,,-1.22720002e-006,       0.182
,,,-1.22560002e-006,       0.178
,,,-1.22400002e-006,       0.182
,,,-1.22240002e-006,       0.178
,,,-1.22080002e-006,       0.182
,,,-1.21920002e-006,       0.178
,,,-1.21760002e-006,       0.178
,,,-1.21600002e-006,       0.174
,,,-1.21440002e-006,        0.17
,,,-1.21280002e-006,       0.178
,,,-1.21120002e-006,       0.174
,,,-1.20960002e-006,       0.174
,,,-1.20800002e-006,        0.17
,,,-1.20640002e-006,        0.17
,,,-1.20480002e-006,        0.17
,,,-1.20320002e-006,        0.17
,,,-1.20160002e-006,        0.17
,,,-1.20000002e-006,       0.166
,,,-1.19840002e-006,        0.17
,,,-1.19680002e-006,       0.166
,,,-1.19520002e-006,       0.166
,,,-1.19360002e-006,       0.174
,,,-1.19200002e-006,       0.166
,,,-1.19040002e-006,       0.166
,,,-1.18880002e-006,       0.162
,,,-1.18720002e-006,       0.166
,,,-1.18560002e-006,       0.166
,,,-1.18400002e-006,       0.158
,,,-1.18240002e-006,       0.158
,,,-1.18080002e-006,       0.162
,,,-1.17920002e-006,       0.158
,,,-1.17760002e-006,       0.158
,,,-1.17600002e-006,       0.158
,,,-1.17440002e-006,       0.154
,,,-1.17280002e-006,       0.158
,,,-1.17120002e-006,       0.154
,,,-1.16960002e-006,       0.154
,,,-1.16800002e-006,       0.154
,,,-1.16640002e-006,       0.154
,,,-1.16480002e-006,       0.154
,,,-1.16320002e-006,       0.158
,,,-1.16160002e-006,       0.154
,,,-1.16000002e-006,       0.154
,,,-1.15840002e-006,        0.15
,,,-1.15680002e-006,        0.15
,,,-1.15520002e-006,       0.154
,,,-1.15360002e-006,       0.154
,,,-1.15200002e-006,        0.15
,,,-1.15040002e-006,        0.15
,,,-1.14880002e-006,       0.146
,,,-1.14720002e-006,        0.15
,,,-1.14560002e-006,       0.142
,,,-1.14400002e-006,       0.146
,,,-1.14240002e-006,       0.146
,,,-1.14080002e-006,        0.15
,,,-1.13920002e-006,       0.142
,,,-1.13760002e-006,       0.142
,,,-1.13600002e-006,       0.142
,,,-1.13440002e-006,       0.146
,,,-1.13280002e-006,       0.138
,,,-1.13120002e-006,       0.138
,,,-1.12960002e-006,       0.138
,,,-1.12800002e-006,       0.138
,,,-1.12640002e-006,        0.13
,,,-1.12480002e-006,       0.138
,,,-1.12320001e-006,       0.138
,,,-1.12160001e-006,       0.134
,,,-1.12000001e-006,       0.138
,,,-1.11840001e-006,       0.134
,,,-1.11680001e-006,        0.13
,,,-1.11520001e-006,        0.13
,,,-1.11360001e-006,       0.134
,,,-1.11200001e-006,       0.126
,,,-1.11040001e-006,        0.13
,,,-1.10880001e-006,       0.126
,,,-1.10720001e-006,        0.13
,,,-1.10560001e-006,        0.13
,,,-1.10400001e-006,       0.126
,,,-1.10240001e-006,        0.13
,,,-1.10080001e-006,       0.126
,,,-1.09920001e-006,       0.126
,,,-1.09760001e-006,       0.122
,,,-1.09600001e-006,        0.13
,,,-1.09440001e-006,       0.126
,,,-1.09280001e-006,       0.122
,,,-1.09120001e-006,       0.122
,,,-1.08960001e-006,       0.126
,,,-1.08800001e-006,       0.126
,,,-1.08640001e-006,       0.118
,,,-1.08480001e-006,       0.122
,,,-1.08320001e-006,        0.11
,,,-1.08160001e-006,       0.114
,,,-1.08000001e-006,       0.114
,,,-1.07840001e-006,       0.118
,,,-1.07680001e-006,       0.118
,,,-1.07520001e-006,       0.114
,,,-1.07360001e-006,        0.11
,,,-1.07200001e-006,        0.11
,,,-1.07040001e-006,       0.114
,,,-1.06880001e-006,        0.11
,,,-1.06720001e-006,        0.11
,,,-1.06560001e-006,       0.106
,,,-1.06400001e-006,        0.11
,,,-1.06240001e-006,        0.11
,,,-1.06080001e-006,        0.11
,,,-1.05920001e-006,       0.106
,,,-1.05760001e-006,       0.102
,,,-1.05600001e-006,       0.106
,,,-1.05440001e-006,       0.102
,,,-1.05280001e-006,       0.106
,,,-1.05120001e-006,       0.098
,,,-1.04960001e-006,       0.106
,,,-1.04800001e-006,       0.098
,,,-1.04640001e-006,       0.106
,,,-1.04480001e-006,       0.102
,,,-1.04320001e-006,       0.098
,,,-1.04160001e-006,       0.098
,,,-1.04000001e-006,       0.094
