CalibrationOct2023/100623/100623s7c2b2_90.csv

"Record Length",6250,"Points",-1.39040002e-006,       0.006
"Sample Interval",1.60000002e-009,s,-1.38880002e-006,       0.006
"Trigger Point",869,"Samples",-1.38720002e-006,       0.006
"Trigger Time",1.19915719e-009,s,-1.38560002e-006,       0.002
"",,,-1.38400002e-006,       0.006
"Horizontal Offset",-1.39200002e-006,s,-1.38240002e-006,      -0.002
,,,-1.38080002e-006,       0.006
,,,-1.37920002e-006,       0.002
,,,-1.37760002e-006,      -0.002
,,,-1.37600002e-006,      -0.002
,,,-1.37440002e-006,      -0.006
,,,-1.37280002e-006,      -0.006
,,,-1.37120002e-006,      -0.006
,,,-1.36960002e-006,      -0.006
,,,-1.36800002e-006,       -0.01
,,,-1.36640002e-006,      -0.006
,,,-1.36480002e-006,       -0.01
,,,-1.36320002e-006,      -0.006
,,,-1.36160002e-006,      -0.014
,,,-1.36000002e-006,      -0.006
,,,-1.35840002e-006,      -0.014
,,,-1.35680002e-006,       -0.01
,,,-1.35520002e-006,      -0.014
,,,-1.35360002e-006,       -0.01
,,,-1.35200002e-006,       -0.01
,,,-1.35040002e-006,      -0.018
,,,-1.34880002e-006,      -0.018
,,,-1.34720002e-006,       -0.01
,,,-1.34560002e-006,      -0.018
,,,-1.34400002e-006,      -0.026
,,,-1.34240002e-006,      -0.018
,,,-1.34080002e-006,      -0.018
,,,-1.33920002e-006,      -0.018
,,,-1.33760002e-006,      -0.018
,,,-1.33600002e-006,      -0.022
,,,-1.33440002e-006,      -0.022
,,,-1.33280002e-006,      -0.022
,,,-1.33120002e-006,      -0.022
,,,-1.32960002e-006,      -0.026
,,,-1.32800002e-006,      -0.022
,,,-1.32640002e-006,      -0.034
,,,-1.32480002e-006,       -0.03
,,,-1.32320002e-006,      -0.022
,,,-1.32160002e-006,      -0.034
,,,-1.32000002e-006,       -0.03
,,,-1.31840002e-006,       -0.03
,,,-1.31680002e-006,       -0.03
,,,-1.31520002e-006,      -0.026
,,,-1.31360002e-006,      -0.042
,,,-1.31200002e-006,      -0.034
,,,-1.31040002e-006,       -0.03
,,,-1.30880002e-006,      -0.034
,,,-1.30720002e-006,      -0.034
,,,-1.30560002e-006,      -0.038
,,,-1.30400002e-006,      -0.038
,,,-1.30240002e-006,      -0.034
,,,-1.30080002e-006,      -0.038
,,,-1.29920002e-006,      -0.042
,,,-1.29760002e-006,      -0.042
,,,-1.29600002e-006,      -0.042
,,,-1.29440002e-006,      -0.042
,,,-1.29280002e-006,       -0.05
,,,-1.29120002e-006,      -0.046
,,,-1.28960002e-006,      -0.046
,,,-1.28800002e-006,      -0.046
,,,-1.28640002e-006,      -0.046
,,,-1.28480002e-006,      -0.046
,,,-1.28320002e-006,       -0.05
,,,-1.28160002e-006,      -0.046
,,,-1.28000002e-006,      -0.046
,,,-1.27840002e-006,      -0.046
,,,-1.27680002e-006,      -0.058
,,,-1.27520002e-006,       -0.05
,,,-1.27360002e-006,      -0.054
,,,-1.27200002e-006,      -0.054
,,,-1.27040002e-006,      -0.054
,,,-1.26880002e-006,      -0.054
,,,-1.26720002e-006,      -0.054
,,,-1.26560002e-006,      -0.058
,,,-1.26400002e-006,      -0.058
,,,-1.26240002e-006,      -0.054
,,,-1.26080002e-006,      -0.054
,,,-1.25920002e-006,      -0.054
,,,-1.25760002e-006,      -0.058
,,,-1.25600002e-006,      -0.058
,,,-1.25440002e-006,      -0.058
,,,-1.25280002e-006,      -0.066
,,,-1.25120002e-006,      -0.058
,,,-1.24960002e-006,      -0.066
,,,-1.24800002e-006,      -0.066
,,,-1.24640002e-006,      -0.066
,,,-1.24480002e-006,      -0.066
,,,-1.24320002e-006,       -0.07
,,,-1.24160002e-006,      -0.062
,,,-1.24000002e-006,      -0.074
,,,-1.23840002e-006,      -0.066
,,,-1.23680002e-006,      -0.066
,,,-1.23520002e-006,      -0.066
,,,-1.23360002e-006,      -0.078
,,,-1.23200002e-006,      -0.078
,,,-1.23040002e-006,       -0.07
,,,-1.22880002e-006,      -0.074
,,,-1.22720002e-006,      -0.066
,,,-1.22560002e-006,       -0.07
,,,-1.22400002e-006,      -0.078
,,,-1.22240002e-006,       -0.07
,,,-1.22080002e-006,      -0.082
,,,-1.21920002e-006,      -0.074
,,,-1.21760002e-006,      -0.078
,,,-1.21600002e-006,      -0.082
,,,-1.21440002e-006,       -0.07
,,,-1.21280002e-006,      -0.086
,,,-1.21120002e-006,       -0.09
,,,-1.20960002e-006,      -0.082
,,,-1.20800002e-006,      -0.078
,,,-1.20640002e-006,      -0.082
,,,-1.20480002e-006,      -0.082
,,,-1.20320002e-006,      -0.086
,,,-1.20160002e-006,      -0.078
,,,-1.20000002e-006,      -0.086
,,,-1.19840002e-006,      -0.086
,,,-1.19680002e-006,      -0.094
,,,-1.19520002e-006,       -0.09
,,,-1.19360002e-006,      -0.094
,,,-1.19200002e-006,       -0.09
,,,-1.19040002e-006,      -0.094
,,,-1.18880002e-006,       -0.09
,,,-1.18720002e-006,      -0.082
,,,-1.18560002e-006,      -0.086
,,,-1.18400002e-006,       -0.09
,,,-1.18240002e-006,      -0.098
,,,-1.18080002e-006,      -0.094
,,,-1.17920002e-006,      -0.094
,,,-1.17760002e-006,       -0.09
,,,-1.17600002e-006,      -0.094
,,,-1.17440002e-006,       -0.09
,,,-1.17280002e-006,      -0.094
,,,-1.17120002e-006,      -0.098
,,,-1.16960002e-006,      -0.102
,,,-1.16800002e-006,      -0.098
,,,-1.16640002e-006,      -0.098
,,,-1.16480002e-006,      -0.106
,,,-1.16320002e-006,      -0.102
,,,-1.16160002e-006,      -0.098
,,,-1.16000002e-006,      -0.106
,,,-1.15840002e-006,      -0.098
,,,-1.15680002e-006,      -0.102
,,,-1.15520002e-006,      -0.106
,,,-1.15360002e-006,      -0.102
,,,-1.15200002e-006,      -0.102
,,,-1.15040002e-006,      -0.106
,,,-1.14880002e-006,      -0.106
,,,-1.14720002e-006,       -0.11
,,,-1.14560002e-006,       -0.11
,,,-1.14400002e-006,       -0.11
,,,-1.14240002e-006,       -0.11
,,,-1.14080002e-006,      -0.118
,,,-1.13920002e-006,      -0.118
,,,-1.13760002e-006,       -0.11
,,,-1.13600002e-006,      -0.114
,,,-1.13440002e-006,      -0.114
,,,-1.13280002e-006,      -0.114
,,,-1.13120002e-006,      -0.118
,,,-1.12960002e-006,      -0.118
,,,-1.12800002e-006,      -0.118
,,,-1.12640002e-006,      -0.118
,,,-1.12480002e-006,      -0.122
,,,-1.12320001e-006,      -0.118
,,,-1.12160001e-006,      -0.122
,,,-1.12000001e-006,      -0.122
,,,-1.11840001e-006,      -0.122
,,,-1.11680001e-006,      -0.126
,,,-1.11520001e-006,      -0.118
,,,-1.11360001e-006,       -0.13
,,,-1.11200001e-006,      -0.122
,,,-1.11040001e-006,      -0.122
,,,-1.10880001e-006,      -0.122
,,,-1.10720001e-006,      -0.126
,,,-1.10560001e-006,      -0.138
,,,-1.10400001e-006,      -0.126
,,,-1.10240001e-006,      -0.134
,,,-1.10080001e-006,      -0.134
,,,-1.09920001e-006,      -0.126
,,,-1.09760001e-006,      -0.134
,,,-1.09600001e-006,      -0.134
,,,-1.09440001e-006,       -0.13
,,,-1.09280001e-006,      -0.138
,,,-1.09120001e-006,      -0.126
,,,-1.08960001e-006,      -0.138
,,,-1.08800001e-006,      -0.134
,,,-1.08640001e-006,      -0.134
,,,-1.08480001e-006,      -0.138
,,,-1.08320001e-006,      -0.142
,,,-1.08160001e-006,      -0.134
,,,-1.08000001e-006,      -0.142
,,,-1.07840001e-006,      -0.146
,,,-1.07680001e-006,      -0.146
,,,-1.07520001e-006,      -0.138
,,,-1.07360001e-006,      -0.142
,,,-1.07200001e-006,      -0.142
,,,-1.07040001e-006,      -0.146
,,,-1.06880001e-006,      -0.142
,,,-1.06720001e-006,      -0.146
,,,-1.06560001e-006,      -0.142
,,,-1.06400001e-006,      -0.146
,,,-1.06240001e-006,      -0.146
,,,-1.06080001e-006,      -0.146
,,,-1.05920001e-006,       -0.15
,,,-1.05760001e-006,      -0.154
,,,-1.05600001e-006,       -0.15
,,,-1.05440001e-006,      -0.154
,,,-1.05280001e-006,       -0.15
,,,-1.05120001e-006,       -0.15
,,,-1.04960001e-006,      -0.154
,,,-1.04800001e-006,       -0.15
,,,-1.04640001e-006,       -0.15
,,,-1.04480001e-006,      -0.154
,,,-1.04320001e-006,      -0.158
,,,-1.04160001e-006,      -0.158
,,,-1.04000001e-006,      -0.158
,,,-1.03840001e-006,      -0.158
,,,-1.03680001e-006,      -0.154
,,,-1.03520001e-006,      -0.154
,,,-1.03360001e-006,      -0.158
,,,-1.03200001e-006,      -0.158
,,,-1.03040001e-006,      -0.166
,,,-1.02880001e-006,      -0.158
,,,-1.02720001e-006,      -0.158
,,,-1.02560001e-006,       -0.17
,,,-1.02400001e-006,      -0.162
,,,-1.02240001e-006,      -0.158
,,,-1.02080001e-006,      -0.166
,,,-1.01920001e-006,      -0.166
,,,-1.01760001e-006,      -0.162
,,,-1.01600001e-006,      -0.166
,,,-1.01440001e-006,      -0.166
,,,-1.01280001e-006,      -0.166
,,,-1.01120001e-006,      -0.162
,,,-1.00960001e-006,       -0.17
,,,-1.00800001e-006,       -0.17
,,,-1.00640001e-006,       -0.17
,,,-1.00480001e-006,       -0.17
,,,-1.00320001e-006,      -0.174
,,,-1.00160001e-006,      -0.182
,,,-1.00000001e-006,      -0.174
,,,-9.98400013e-007,      -0.178
,,,-9.96800013e-007,      -0.174
,,,-9.95200013e-007,       -0.17
,,,-9.93600013e-007,      -0.174
,,,-9.92000013e-007,      -0.178
,,,-9.90400013e-007,      -0.174
,,,-9.88800013e-007,      -0.178
,,,-9.87200013e-007,      -0.182
,,,-9.85600013e-007,      -0.182
,,,-9.84000013e-007,      -0.182
,,,-9.82400013e-007,      -0.182
,,,-9.80800013e-007,      -0.182
,,,-9.79200013e-007,       -0.19
,,,-9.77600013e-007,      -0.186
,,,-9.76000013e-007,      -0.186
,,,-9.74400013e-007,      -0.182
,,,-9.72800013e-007,      -0.182
,,,-9.71200013e-007,      -0.186
,,,-9.69600013e-007,      -0.182
,,,-9.68000013e-007,      -0.186
,,,-9.66400013e-007,      -0.186
,,,-9.64800013e-007,       -0.19
,,,-9.63200013e-007,      -0.186
,,,-9.61600013e-007,      -0.186
,,,-9.60000013e-007,      -0.186
,,,-9.58400013e-007,       -0.19
,,,-9.56800013e-007,      -0.186
,,,-9.55200013e-007,      -0.186
,,,-9.53600013e-007,      -0.194
,,,-9.52000013e-007,       -0.19
,,,-9.50400013e-007,      -0.198
,,,-9.48800013e-007,      -0.198
,,,-9.47200013e-007,      -0.194
,,,-9.45600013e-007,      -0.198
,,,-9.44000013e-007,      -0.198
,,,-9.42400013e-007,      -0.198
,,,-9.40800013e-007,      -0.194
,,,-9.39200013e-007,      -0.194
,,,-9.37600013e-007,      -0.198
,,,-9.36000012e-007,      -0.202
,,,-9.34400012e-007,      -0.198
,,,-9.32800012e-007,      -0.198
,,,-9.31200012e-007,      -0.198
,,,-9.29600012e-007,      -0.202
,,,-9.28000012e-007,      -0.202
,,,-9.26400012e-007,      -0.198
,,,-9.24800012e-007,      -0.194
,,,-9.23200012e-007,      -0.202
,,,-9.21600012e-007,      -0.198
,,,-9.20000012e-007,      -0.198
,,,-9.18400012e-007,      -0.206
,,,-9.16800012e-007,      -0.202
,,,-9.15200012e-007,      -0.206
,,,-9.13600012e-007,      -0.202
,,,-9.12000012e-007,      -0.202
,,,-9.10400012e-007,      -0.206
,,,-9.08800012e-007,      -0.202
,,,-9.07200012e-007,       -0.21
,,,-9.05600012e-007,      -0.206
,,,-9.04000012e-007,      -0.206
,,,-9.02400012e-007,       -0.21
,,,-9.00800012e-007,       -0.21
,,,-8.99200012e-007,       -0.21
,,,-8.97600012e-007,       -0.21
,,,-8.96000012e-007,      -0.214
,,,-8.94400012e-007,      -0.214
,,,-8.92800012e-007,       -0.21
,,,-8.91200012e-007,      -0.214
,,,-8.89600012e-007,      -0.214
,,,-8.88000012e-007,      -0.214
,,,-8.86400012e-007,      -0.218
,,,-8.84800012e-007,      -0.214
,,,-8.83200012e-007,      -0.218
,,,-8.81600012e-007,      -0.218
,,,-8.80000012e-007,      -0.218
,,,-8.78400012e-007,      -0.222
,,,-8.76800012e-007,      -0.218
,,,-8.75200012e-007,      -0.222
,,,-8.73600012e-007,       -0.23
,,,-8.72000012e-007,      -0.218
,,,-8.70400012e-007,      -0.222
,,,-8.68800012e-007,       -0.23
,,,-8.67200012e-007,      -0.222
,,,-8.65600012e-007,      -0.222
,,,-8.64000012e-007,      -0.226
,,,-8.62400012e-007,       -0.23
,,,-8.60800011e-007,      -0.226
,,,-8.59200011e-007,      -0.222
,,,-8.57600011e-007,      -0.222
,,,-8.56000011e-007,      -0.226
,,,-8.54400011e-007,      -0.226
,,,-8.52800011e-007,      -0.226
,,,-8.51200011e-007,      -0.226
,,,-8.49600011e-007,      -0.234
,,,-8.48000011e-007,       -0.23
,,,-8.46400011e-007,       -0.23
,,,-8.44800011e-007,      -0.226
,,,-8.43200011e-007,      -0.226
,,,-8.41600011e-007,       -0.23
,,,-8.40000011e-007,       -0.23
,,,-8.38400011e-007,       -0.23
,,,-8.36800011e-007,      -0.234
,,,-8.35200011e-007,      -0.234
,,,-8.33600011e-007,       -0.23
,,,-8.32000011e-007,      -0.242
,,,-8.30400011e-007,      -0.234
,,,-8.28800011e-007,      -0.234
,,,-8.27200011e-007,      -0.238
,,,-8.25600011e-007,      -0.242
,,,-8.24000011e-007,      -0.238
,,,-8.22400011e-007,      -0.238
,,,-8.20800011e-007,      -0.238
,,,-8.19200011e-007,      -0.242
,,,-8.17600011e-007,      -0.242
,,,-8.16000011e-007,      -0.234
,,,-8.14400011e-007,       -0.25
,,,-8.12800011e-007,      -0.246
,,,-8.11200011e-007,      -0.242
,,,-8.09600011e-007,      -0.242
,,,-8.08000011e-007,      -0.246
,,,-8.06400011e-007,      -0.242
,,,-8.04800011e-007,      -0.238
,,,-8.03200011e-007,      -0.246
,,,-8.01600011e-007,      -0.246
,,,-8.00000011e-007,      -0.246
,,,-7.98400011e-007,      -0.246
,,,-7.96800011e-007,      -0.238
,,,-7.95200011e-007,      -0.242
,,,-7.93600011e-007,      -0.246
,,,-7.92000011e-007,      -0.254
,,,-7.90400011e-007,      -0.246
,,,-7.88800011e-007,       -0.25
,,,-7.87200011e-007,       -0.25
,,,-7.8560001e-007,       -0.25
,,,-7.8400001e-007,      -0.254
,,,-7.8240001e-007,      -0.242
,,,-7.8080001e-007,       -0.25
,,,-7.7920001e-007,       -0.25
,,,-7.7760001e-007,      -0.246
,,,-7.7600001e-007,      -0.246
,,,-7.7440001e-007,      -0.254
,,,-7.7280001e-007,      -0.254
,,,-7.7120001e-007,      -0.262
,,,-7.6960001e-007,      -0.254
,,,-7.6800001e-007,      -0.254
,,,-7.6640001e-007,      -0.262
,,,-7.6480001e-007,      -0.258
,,,-7.6320001e-007,      -0.258
,,,-7.6160001e-007,      -0.258
,,,-7.6000001e-007,      -0.258
,,,-7.5840001e-007,      -0.262
,,,-7.5680001e-007,      -0.258
,,,-7.5520001e-007,      -0.258
,,,-7.5360001e-007,      -0.258
,,,-7.5200001e-007,      -0.258
,,,-7.5040001e-007,      -0.266
,,,-7.4880001e-007,      -0.262
,,,-7.4720001e-007,       -0.27
,,,-7.4560001e-007,      -0.262
,,,-7.4400001e-007,      -0.266
,,,-7.4240001e-007,      -0.258
,,,-7.4080001e-007,      -0.262
,,,-7.3920001e-007,      -0.266
,,,-7.3760001e-007,      -0.266
,,,-7.3600001e-007,      -0.262
,,,-7.3440001e-007,      -0.266
,,,-7.3280001e-007,      -0.258
,,,-7.3120001e-007,      -0.266
,,,-7.2960001e-007,       -0.27
,,,-7.2800001e-007,       -0.27
,,,-7.2640001e-007,       -0.27
,,,-7.2480001e-007,      -0.266
,,,-7.2320001e-007,      -0.274
,,,-7.2160001e-007,      -0.266
,,,-7.2000001e-007,      -0.266
,,,-7.1840001e-007,      -0.266
,,,-7.1680001e-007,      -0.266
,,,-7.1520001e-007,      -0.266
,,,-7.1360001e-007,      -0.274
,,,-7.1200001e-007,       -0.27
,,,-7.10400009e-007,       -0.27
,,,-7.08800009e-007,      -0.274
,,,-7.07200009e-007,      -0.274
,,,-7.05600009e-007,      -0.274
,,,-7.04000009e-007,      -0.266
,,,-7.02400009e-007,      -0.274
,,,-7.00800009e-007,      -0.274
,,,-6.99200009e-007,       -0.27
,,,-6.97600009e-007,      -0.278
,,,-6.96000009e-007,      -0.274
,,,-6.94400009e-007,      -0.274
,,,-6.92800009e-007,      -0.274
,,,-6.91200009e-007,      -0.278
,,,-6.89600009e-007,      -0.274
,,,-6.88000009e-007,      -0.278
,,,-6.86400009e-007,      -0.282
,,,-6.84800009e-007,      -0.274
,,,-6.83200009e-007,      -0.274
,,,-6.81600009e-007,      -0.278
,,,-6.80000009e-007,      -0.278
,,,-6.78400009e-007,      -0.282
,,,-6.76800009e-007,      -0.282
,,,-6.75200009e-007,      -0.282
,,,-6.73600009e-007,      -0.286
,,,-6.72000009e-007,      -0.278
,,,-6.70400009e-007,      -0.282
,,,-6.68800009e-007,      -0.282
,,,-6.67200009e-007,      -0.286
,,,-6.65600009e-007,      -0.282
,,,-6.64000009e-007,      -0.282
,,,-6.62400009e-007,      -0.282
,,,-6.60800009e-007,      -0.282
,,,-6.59200009e-007,      -0.282
,,,-6.57600009e-007,      -0.286
,,,-6.56000009e-007,      -0.282
,,,-6.54400009e-007,      -0.282
,,,-6.52800009e-007,      -0.282
,,,-6.51200009e-007,       -0.29
,,,-6.49600009e-007,      -0.286
,,,-6.48000009e-007,      -0.286
,,,-6.46400009e-007,       -0.29
,,,-6.44800009e-007,      -0.286
,,,-6.43200009e-007,      -0.294
,,,-6.41600009e-007,       -0.29
,,,-6.40000009e-007,       -0.29
,,,-6.38400009e-007,      -0.286
,,,-6.36800009e-007,       -0.29
,,,-6.35200008e-007,       -0.29
,,,-6.33600008e-007,      -0.286
,,,-6.32000008e-007,       -0.29
,,,-6.30400008e-007,       -0.29
,,,-6.28800008e-007,       -0.29
,,,-6.27200008e-007,      -0.298
,,,-6.25600008e-007,      -0.294
,,,-6.24000008e-007,       -0.29
,,,-6.22400008e-007,      -0.298
,,,-6.20800008e-007,       -0.29
,,,-6.19200008e-007,      -0.294
,,,-6.17600008e-007,       -0.29
,,,-6.16000008e-007,       -0.29
,,,-6.14400008e-007,      -0.294
,,,-6.12800008e-007,      -0.294
,,,-6.11200008e-007,      -0.298
,,,-6.09600008e-007,      -0.298
,,,-6.08000008e-007,      -0.294
,,,-6.06400008e-007,      -0.298
,,,-6.04800008e-007,      -0.294
,,,-6.03200008e-007,      -0.298
,,,-6.01600008e-007,      -0.294
,,,-6.00000008e-007,      -0.298
,,,-5.98400008e-007,      -0.294
,,,-5.96800008e-007,       -0.29
,,,-5.95200008e-007,      -0.298
,,,-5.93600008e-007,      -0.306
,,,-5.92000008e-007,      -0.302
,,,-5.90400008e-007,      -0.298
,,,-5.88800008e-007,      -0.306
,,,-5.87200008e-007,      -0.298
,,,-5.85600008e-007,      -0.298
,,,-5.84000008e-007,      -0.298
,,,-5.82400008e-007,      -0.302
,,,-5.80800008e-007,      -0.298
,,,-5.79200008e-007,      -0.302
,,,-5.77600008e-007,      -0.302
,,,-5.76000008e-007,      -0.298
,,,-5.74400008e-007,      -0.298
,,,-5.72800008e-007,      -0.298
,,,-5.71200008e-007,      -0.306
,,,-5.69600008e-007,      -0.302
,,,-5.68000008e-007,      -0.302
,,,-5.66400008e-007,      -0.302
,,,-5.64800008e-007,      -0.302
,,,-5.63200008e-007,      -0.306
,,,-5.61600007e-007,      -0.306
,,,-5.60000007e-007,      -0.306
,,,-5.58400007e-007,      -0.302
,,,-5.56800007e-007,      -0.302
,,,-5.55200007e-007,       -0.31
,,,-5.53600007e-007,      -0.306
,,,-5.52000007e-007,      -0.306
,,,-5.50400007e-007,      -0.306
,,,-5.48800007e-007,      -0.302
,,,-5.47200007e-007,      -0.306
,,,-5.45600007e-007,      -0.306
,,,-5.44000007e-007,      -0.306
,,,-5.42400007e-007,       -0.31
,,,-5.40800007e-007,       -0.31
,,,-5.39200007e-007,      -0.306
,,,-5.37600007e-007,       -0.31
,,,-5.36000007e-007,      -0.314
,,,-5.34400007e-007,      -0.314
,,,-5.32800007e-007,       -0.31
,,,-5.31200007e-007,       -0.31
,,,-5.29600007e-007,      -0.314
,,,-5.28000007e-007,       -0.31
,,,-5.26400007e-007,      -0.314
,,,-5.24800007e-007,       -0.31
,,,-5.23200007e-007,      -0.314
,,,-5.21600007e-007,       -0.31
,,,-5.20000007e-007,      -0.314
,,,-5.18400007e-007,      -0.318
,,,-5.16800007e-007,      -0.314
,,,-5.15200007e-007,      -0.322
,,,-5.13600007e-007,      -0.306
,,,-5.12000007e-007,       -0.31
,,,-5.10400007e-007,       -0.31
,,,-5.08800007e-007,       -0.31
,,,-5.07200007e-007,      -0.318
,,,-5.05600007e-007,      -0.306
,,,-5.04000007e-007,      -0.318
,,,-5.02400007e-007,      -0.314
,,,-5.00800007e-007,       -0.31
,,,-4.99200007e-007,      -0.314
,,,-4.97600007e-007,      -0.314
,,,-4.96000007e-007,      -0.318
,,,-4.94400007e-007,      -0.314
,,,-4.92800007e-007,      -0.318
,,,-4.91200007e-007,      -0.314
,,,-4.89600007e-007,      -0.318
,,,-4.88000007e-007,      -0.322
,,,-4.86400006e-007,      -0.322
,,,-4.84800006e-007,      -0.318
,,,-4.83200006e-007,      -0.314
,,,-4.81600006e-007,      -0.318
,,,-4.80000006e-007,      -0.318
,,,-4.78400006e-007,      -0.318
,,,-4.76800006e-007,      -0.318
,,,-4.75200006e-007,      -0.314
,,,-4.73600006e-007,      -0.318
,,,-4.72000006e-007,      -0.318
,,,-4.70400006e-007,      -0.318
,,,-4.68800006e-007,      -0.314
,,,-4.67200006e-007,      -0.314
,,,-4.65600006e-007,      -0.322
,,,-4.64000006e-007,      -0.314
,,,-4.62400006e-007,      -0.318
,,,-4.60800006e-007,      -0.318
,,,-4.59200006e-007,      -0.314
,,,-4.57600006e-007,      -0.314
,,,-4.56000006e-007,      -0.322
,,,-4.54400006e-007,      -0.326
,,,-4.52800006e-007,      -0.318
,,,-4.51200006e-007,      -0.318
,,,-4.49600006e-007,      -0.322
,,,-4.48000006e-007,      -0.322
,,,-4.46400006e-007,      -0.318
,,,-4.44800006e-007,      -0.318
,,,-4.43200006e-007,      -0.322
,,,-4.41600006e-007,      -0.322
,,,-4.40000006e-007,      -0.322
,,,-4.38400006e-007,      -0.326
,,,-4.36800006e-007,      -0.322
,,,-4.35200006e-007,      -0.322
,,,-4.33600006e-007,      -0.322
,,,-4.32000006e-007,      -0.322
,,,-4.30400006e-007,      -0.322
,,,-4.28800006e-007,      -0.322
