CalibrationOct2023/100623/100623s7c4b2_90.csv

"Record Length",6250,"Points",-1.39040002e-006,     -0.0064
"Sample Interval",1.60000002e-009,s,-1.38880002e-006,     -0.0074
"Trigger Point",869,"Samples",-1.38720002e-006,     -0.0094
"Trigger Time",1.19915719e-009,s,-1.38560002e-006,     -0.0112
"",,,-1.38400002e-006,     -0.0116
"Horizontal Offset",-1.39200002e-006,s,-1.38240002e-006,     -0.0124
,,,-1.38080002e-006,     -0.0136
,,,-1.37920002e-006,     -0.0142
,,,-1.37760002e-006,     -0.0136
,,,-1.37600002e-006,     -0.0132
,,,-1.37440002e-006,     -0.0106
,,,-1.37280002e-006,     -0.0092
,,,-1.37120002e-006,      -0.007
,,,-1.36960002e-006,     -0.0048
,,,-1.36800002e-006,     -0.0048
,,,-1.36640002e-006,     -0.0012
,,,-1.36480002e-006,     -0.0008
,,,-1.36320002e-006,       0.001
,,,-1.36160002e-006,      0.0018
,,,-1.36000002e-006,      0.0002
,,,-1.35840002e-006,           0
,,,-1.35680002e-006,     -0.0012
,,,-1.35520002e-006,     -0.0034
,,,-1.35360002e-006,     -0.0042
,,,-1.35200002e-006,     -0.0066
,,,-1.35040002e-006,     -0.0078
,,,-1.34880002e-006,     -0.0104
,,,-1.34720002e-006,     -0.0114
,,,-1.34560002e-006,      -0.012
,,,-1.34400002e-006,     -0.0116
,,,-1.34240002e-006,     -0.0104
,,,-1.34080002e-006,     -0.0096
,,,-1.33920002e-006,      -0.007
,,,-1.33760002e-006,     -0.0068
,,,-1.33600002e-006,     -0.0046
,,,-1.33440002e-006,     -0.0012
,,,-1.33280002e-006,     -0.0002
,,,-1.33120002e-006,      0.0016
,,,-1.32960002e-006,      0.0028
,,,-1.32800002e-006,      0.0022
,,,-1.32640002e-006,      0.0026
,,,-1.32480002e-006,      0.0016
,,,-1.32320002e-006,      0.0018
,,,-1.32160002e-006,      -0.001
,,,-1.32000002e-006,     -0.0014
,,,-1.31840002e-006,      -0.004
,,,-1.31680002e-006,     -0.0068
,,,-1.31520002e-006,     -0.0074
,,,-1.31360002e-006,     -0.0098
,,,-1.31200002e-006,      -0.009
,,,-1.31040002e-006,     -0.0094
,,,-1.30880002e-006,     -0.0086
,,,-1.30720002e-006,     -0.0066
,,,-1.30560002e-006,     -0.0062
,,,-1.30400002e-006,     -0.0032
,,,-1.30240002e-006,     -0.0024
,,,-1.30080002e-006,     -0.0004
,,,-1.29920002e-006,      0.0022
,,,-1.29760002e-006,      0.0022
,,,-1.29600002e-006,       0.003
,,,-1.29440002e-006,      0.0022
,,,-1.29280002e-006,      0.0028
,,,-1.29120002e-006,      0.0004
,,,-1.28960002e-006,           0
,,,-1.28800002e-006,     -0.0006
,,,-1.28640002e-006,     -0.0038
,,,-1.28480002e-006,     -0.0054
,,,-1.28320002e-006,     -0.0072
,,,-1.28160002e-006,     -0.0092
,,,-1.28000002e-006,     -0.0102
,,,-1.27840002e-006,     -0.0112
,,,-1.27680002e-006,     -0.0106
,,,-1.27520002e-006,     -0.0106
,,,-1.27360002e-006,     -0.0088
,,,-1.27200002e-006,     -0.0084
,,,-1.27040002e-006,     -0.0074
,,,-1.26880002e-006,     -0.0016
,,,-1.26720002e-006,     -0.0062
,,,-1.26560002e-006,     -0.0002
,,,-1.26400002e-006,      -0.001
,,,-1.26240002e-006,      -0.001
,,,-1.26080002e-006,      0.0022
,,,-1.25920002e-006,      0.0006
,,,-1.25760002e-006,     -0.0012
,,,-1.25600002e-006,     -0.0014
,,,-1.25440002e-006,      -0.002
,,,-1.25280002e-006,      -0.003
,,,-1.25120002e-006,     -0.0068
,,,-1.24960002e-006,     -0.0036
,,,-1.24800002e-006,     -0.0086
,,,-1.24640002e-006,     -0.0084
,,,-1.24480002e-006,     -0.0066
,,,-1.24320002e-006,     -0.0104
,,,-1.24160002e-006,     -0.0066
,,,-1.24000002e-006,     -0.0074
,,,-1.23840002e-006,     -0.0064
,,,-1.23680002e-006,     -0.0042
,,,-1.23520002e-006,     -0.0052
,,,-1.23360002e-006,      -0.002
,,,-1.23200002e-006,     -0.0012
,,,-1.23040002e-006,     -0.0012
,,,-1.22880002e-006,       0.001
,,,-1.22720002e-006,     -0.0012
,,,-1.22560002e-006,      0.0012
,,,-1.22400002e-006,      -0.001
,,,-1.22240002e-006,     -0.0008
,,,-1.22080002e-006,     -0.0022
,,,-1.21920002e-006,     -0.0024
,,,-1.21760002e-006,     -0.0036
,,,-1.21600002e-006,     -0.0044
,,,-1.21440002e-006,     -0.0044
,,,-1.21280002e-006,     -0.0056
,,,-1.21120002e-006,     -0.0054
,,,-1.20960002e-006,      -0.005
,,,-1.20800002e-006,     -0.0048
,,,-1.20640002e-006,     -0.0042
,,,-1.20480002e-006,     -0.0044
,,,-1.20320002e-006,     -0.0024
,,,-1.20160002e-006,     -0.0024
,,,-1.20000002e-006,      0.0004
,,,-1.19840002e-006,      0.0006
,,,-1.19680002e-006,      0.0008
,,,-1.19520002e-006,      0.0022
,,,-1.19360002e-006,      0.0014
,,,-1.19200002e-006,      0.0016
,,,-1.19040002e-006,      0.0014
,,,-1.18880002e-006,       0.001
,,,-1.18720002e-006,      0.0018
,,,-1.18560002e-006,      0.0004
,,,-1.18400002e-006,      0.0002
,,,-1.18240002e-006,     -0.0002
,,,-1.18080002e-006,     -0.0014
,,,-1.17920002e-006,     -0.0004
,,,-1.17760002e-006,     -0.0018
,,,-1.17600002e-006,     -0.0012
,,,-1.17440002e-006,     -0.0004
,,,-1.17280002e-006,     -0.0012
,,,-1.17120002e-006,     -0.0004
,,,-1.16960002e-006,     -0.0008
,,,-1.16800002e-006,     -0.0002
,,,-1.16640002e-006,           0
,,,-1.16480002e-006,           0
,,,-1.16320002e-006,      0.0008
,,,-1.16160002e-006,     -0.0004
,,,-1.16000002e-006,     -0.0002
,,,-1.15840002e-006,      0.0006
,,,-1.15680002e-006,      -0.001
,,,-1.15520002e-006,     -0.0006
,,,-1.15360002e-006,      -0.001
,,,-1.15200002e-006,     -0.0004
,,,-1.15040002e-006,      -0.001
,,,-1.14880002e-006,     -0.0014
,,,-1.14720002e-006,     -0.0008
,,,-1.14560002e-006,     -0.0008
,,,-1.14400002e-006,           0
,,,-1.14240002e-006,           0
,,,-1.14080002e-006,           0
,,,-1.13920002e-006,      0.0004
,,,-1.13760002e-006,      0.0006
,,,-1.13600002e-006,      0.0006
,,,-1.13440002e-006,      0.0004
,,,-1.13280002e-006,      0.0004
,,,-1.13120002e-006,      0.0004
,,,-1.12960002e-006,      0.0002
,,,-1.12800002e-006,     -0.0008
,,,-1.12640002e-006,     -0.0006
,,,-1.12480002e-006,     -0.0012
,,,-1.12320001e-006,     -0.0002
,,,-1.12160001e-006,      -0.001
,,,-1.12000001e-006,     -0.0008
,,,-1.11840001e-006,     -0.0008
,,,-1.11680001e-006,     -0.0008
,,,-1.11520001e-006,      0.0002
,,,-1.11360001e-006,      0.0004
,,,-1.11200001e-006,       0.001
,,,-1.11040001e-006,      0.0014
,,,-1.10880001e-006,      0.0016
,,,-1.10720001e-006,      0.0014
,,,-1.10560001e-006,      0.0016
,,,-1.10400001e-006,      0.0018
,,,-1.10240001e-006,      0.0016
,,,-1.10080001e-006,       0.001
,,,-1.09920001e-006,      0.0008
,,,-1.09760001e-006,     -0.0002
,,,-1.09600001e-006,     -0.0008
,,,-1.09440001e-006,     -0.0018
,,,-1.09280001e-006,     -0.0014
,,,-1.09120001e-006,     -0.0016
,,,-1.08960001e-006,     -0.0016
,,,-1.08800001e-006,     -0.0018
,,,-1.08640001e-006,     -0.0012
,,,-1.08480001e-006,     -0.0012
,,,-1.08320001e-006,      0.0004
,,,-1.08160001e-006,      0.0004
,,,-1.08000001e-006,      0.0016
,,,-1.07840001e-006,      0.0022
,,,-1.07680001e-006,      0.0028
,,,-1.07520001e-006,      0.0036
,,,-1.07360001e-006,      0.0044
,,,-1.07200001e-006,      0.0046
,,,-1.07040001e-006,      0.0054
,,,-1.06880001e-006,      0.0044
,,,-1.06720001e-006,       0.004
,,,-1.06560001e-006,      0.0036
,,,-1.06400001e-006,      0.0032
,,,-1.06240001e-006,       0.002
,,,-1.06080001e-006,      0.0014
,,,-1.05920001e-006,      0.0006
,,,-1.05760001e-006,      0.0002
,,,-1.05600001e-006,      0.0002
,,,-1.05440001e-006,           0
,,,-1.05280001e-006,      0.0006
,,,-1.05120001e-006,      0.0006
,,,-1.04960001e-006,      0.0014
,,,-1.04800001e-006,       0.002
,,,-1.04640001e-006,      0.0034
,,,-1.04480001e-006,       0.004
,,,-1.04320001e-006,      0.0046
,,,-1.04160001e-006,      0.0054
,,,-1.04000001e-006,      0.0058
,,,-1.03840001e-006,      0.0058
,,,-1.03680001e-006,      0.0058
,,,-1.03520001e-006,      0.0056
,,,-1.03360001e-006,      0.0056
,,,-1.03200001e-006,      0.0048
,,,-1.03040001e-006,      0.0042
,,,-1.02880001e-006,      0.0032
,,,-1.02720001e-006,       0.002
,,,-1.02560001e-006,      0.0014
,,,-1.02400001e-006,      0.0008
,,,-1.02240001e-006,      0.0006
,,,-1.02080001e-006,      0.0004
,,,-1.01920001e-006,      0.0006
,,,-1.01760001e-006,       0.001
,,,-1.01600001e-006,      0.0024
,,,-1.01440001e-006,       0.003
,,,-1.01280001e-006,      0.0038
,,,-1.01120001e-006,       0.005
,,,-1.00960001e-006,      0.0058
,,,-1.00800001e-006,      0.0064
,,,-1.00640001e-006,      0.0066
,,,-1.00480001e-006,      0.0072
,,,-1.00320001e-006,       0.007
,,,-1.00160001e-006,      0.0068
,,,-1.00000001e-006,      0.0066
,,,-9.98400013e-007,      0.0054
,,,-9.96800013e-007,      0.0044
,,,-9.95200013e-007,       0.004
,,,-9.93600013e-007,      0.0026
,,,-9.92000013e-007,      0.0024
,,,-9.90400013e-007,      0.0016
,,,-9.88800013e-007,      0.0008
,,,-9.87200013e-007,       0.001
,,,-9.85600013e-007,      0.0006
,,,-9.84000013e-007,       0.001
,,,-9.82400013e-007,      0.0012
,,,-9.80800013e-007,       0.002
,,,-9.79200013e-007,      0.0034
,,,-9.77600013e-007,      0.0036
,,,-9.76000013e-007,      0.0046
,,,-9.74400013e-007,      0.0052
,,,-9.72800013e-007,      0.0054
,,,-9.71200013e-007,       0.006
,,,-9.69600013e-007,      0.0062
,,,-9.68000013e-007,      0.0066
,,,-9.66400013e-007,      0.0056
,,,-9.64800013e-007,      0.0052
,,,-9.63200013e-007,      0.0046
,,,-9.61600013e-007,       0.004
,,,-9.60000013e-007,      0.0038
,,,-9.58400013e-007,      0.0022
,,,-9.56800013e-007,      0.0022
,,,-9.55200013e-007,      0.0016
,,,-9.53600013e-007,      0.0018
,,,-9.52000013e-007,      0.0022
,,,-9.50400013e-007,      0.0028
,,,-9.48800013e-007,      0.0028
,,,-9.47200013e-007,      0.0034
,,,-9.45600013e-007,      0.0042
,,,-9.44000013e-007,      0.0048
,,,-9.42400013e-007,      0.0058
,,,-9.40800013e-007,      0.0064
,,,-9.39200013e-007,      0.0068
,,,-9.37600013e-007,      0.0068
,,,-9.36000012e-007,      0.0072
,,,-9.34400012e-007,      0.0066
,,,-9.32800012e-007,      0.0068
,,,-9.31200012e-007,      0.0066
,,,-9.29600012e-007,      0.0054
,,,-9.28000012e-007,      0.0056
,,,-9.26400012e-007,       0.005
,,,-9.24800012e-007,      0.0042
,,,-9.23200012e-007,       0.004
,,,-9.21600012e-007,      0.0036
,,,-9.20000012e-007,      0.0036
,,,-9.18400012e-007,      0.0038
,,,-9.16800012e-007,      0.0036
,,,-9.15200012e-007,      0.0044
,,,-9.13600012e-007,      0.0048
,,,-9.12000012e-007,       0.005
,,,-9.10400012e-007,      0.0058
,,,-9.08800012e-007,      0.0068
,,,-9.07200012e-007,       0.007
,,,-9.05600012e-007,      0.0068
,,,-9.04000012e-007,      0.0068
,,,-9.02400012e-007,      0.0076
,,,-9.00800012e-007,      0.0076
,,,-8.99200012e-007,      0.0074
,,,-8.97600012e-007,      0.0074
,,,-8.96000012e-007,       0.007
,,,-8.94400012e-007,      0.0072
,,,-8.92800012e-007,      0.0066
,,,-8.91200012e-007,      0.0066
,,,-8.89600012e-007,      0.0064
,,,-8.88000012e-007,      0.0066
,,,-8.86400012e-007,      0.0066
,,,-8.84800012e-007,      0.0066
,,,-8.83200012e-007,      0.0062
,,,-8.81600012e-007,      0.0068
,,,-8.80000012e-007,      0.0074
,,,-8.78400012e-007,       0.007
,,,-8.76800012e-007,      0.0074
,,,-8.75200012e-007,      0.0074
,,,-8.73600012e-007,       0.008
,,,-8.72000012e-007,      0.0084
,,,-8.70400012e-007,      0.0082
,,,-8.68800012e-007,      0.0082
,,,-8.67200012e-007,       0.008
,,,-8.65600012e-007,      0.0074
,,,-8.64000012e-007,      0.0076
,,,-8.62400012e-007,      0.0074
,,,-8.60800011e-007,       0.007
,,,-8.59200011e-007,      0.0074
,,,-8.57600011e-007,       0.007
,,,-8.56000011e-007,       0.007
,,,-8.54400011e-007,      0.0072
,,,-8.52800011e-007,       0.008
,,,-8.51200011e-007,      0.0078
,,,-8.49600011e-007,       0.008
,,,-8.48000011e-007,      0.0076
,,,-8.46400011e-007,      0.0076
,,,-8.44800011e-007,      0.0078
,,,-8.43200011e-007,      0.0078
,,,-8.41600011e-007,      0.0082
,,,-8.40000011e-007,      0.0082
,,,-8.38400011e-007,      0.0082
,,,-8.36800011e-007,      0.0082
,,,-8.35200011e-007,      0.0076
,,,-8.33600011e-007,       0.007
,,,-8.32000011e-007,      0.0076
,,,-8.30400011e-007,      0.0078
,,,-8.28800011e-007,      0.0076
,,,-8.27200011e-007,      0.0076
,,,-8.25600011e-007,      0.0084
,,,-8.24000011e-007,      0.0082
,,,-8.22400011e-007,      0.0082
,,,-8.20800011e-007,      0.0086
,,,-8.19200011e-007,      0.0088
,,,-8.17600011e-007,      0.0092
,,,-8.16000011e-007,      0.0098
,,,-8.14400011e-007,      0.0092
,,,-8.12800011e-007,      0.0088
,,,-8.11200011e-007,       0.009
,,,-8.09600011e-007,      0.0086
,,,-8.08000011e-007,      0.0086
,,,-8.06400011e-007,      0.0084
,,,-8.04800011e-007,      0.0082
,,,-8.03200011e-007,      0.0074
,,,-8.01600011e-007,       0.007
,,,-8.00000011e-007,      0.0076
,,,-7.98400011e-007,      0.0074
,,,-7.96800011e-007,      0.0076
,,,-7.95200011e-007,      0.0076
,,,-7.93600011e-007,      0.0076
,,,-7.92000011e-007,      0.0078
,,,-7.90400011e-007,      0.0082
,,,-7.88800011e-007,      0.0092
,,,-7.87200011e-007,      0.0092
,,,-7.8560001e-007,        0.01
,,,-7.8400001e-007,        0.01
,,,-7.8240001e-007,      0.0102
,,,-7.8080001e-007,      0.0104
,,,-7.7920001e-007,        0.01
,,,-7.7760001e-007,      0.0104
,,,-7.7600001e-007,      0.0102
,,,-7.7440001e-007,        0.01
,,,-7.7280001e-007,       0.009
,,,-7.7120001e-007,      0.0088
,,,-7.6960001e-007,       0.009
,,,-7.6800001e-007,      0.0084
,,,-7.6640001e-007,      0.0084
,,,-7.6480001e-007,      0.0084
,,,-7.6320001e-007,      0.0086
,,,-7.6160001e-007,      0.0086
,,,-7.6000001e-007,      0.0088
,,,-7.5840001e-007,      0.0098
,,,-7.5680001e-007,      0.0102
,,,-7.5520001e-007,      0.0104
,,,-7.5360001e-007,      0.0108
,,,-7.5200001e-007,      0.0106
,,,-7.5040001e-007,      0.0116
,,,-7.4880001e-007,      0.0114
,,,-7.4720001e-007,       0.012
,,,-7.4560001e-007,      0.0118
,,,-7.4400001e-007,      0.0112
,,,-7.4240001e-007,      0.0108
,,,-7.4080001e-007,       0.011
,,,-7.3920001e-007,      0.0102
,,,-7.3760001e-007,      0.0096
,,,-7.3600001e-007,      0.0092
,,,-7.3440001e-007,       0.009
,,,-7.3280001e-007,       0.009
,,,-7.3120001e-007,      0.0086
,,,-7.2960001e-007,      0.0086
,,,-7.2800001e-007,      0.0086
,,,-7.2640001e-007,      0.0092
,,,-7.2480001e-007,      0.0098
,,,-7.2320001e-007,      0.0098
,,,-7.2160001e-007,      0.0104
,,,-7.2000001e-007,       0.011
,,,-7.1840001e-007,      0.0116
,,,-7.1680001e-007,      0.0122
,,,-7.1520001e-007,      0.0126
,,,-7.1360001e-007,      0.0122
,,,-7.1200001e-007,      0.0124
,,,-7.10400009e-007,       0.012
,,,-7.08800009e-007,       0.012
,,,-7.07200009e-007,      0.0114
,,,-7.05600009e-007,      0.0114
,,,-7.04000009e-007,      0.0108
,,,-7.02400009e-007,      0.0102
,,,-7.00800009e-007,      0.0096
,,,-6.99200009e-007,       0.009
,,,-6.97600009e-007,       0.009
,,,-6.96000009e-007,      0.0094
,,,-6.94400009e-007,      0.0094
,,,-6.92800009e-007,      0.0096
,,,-6.91200009e-007,        0.01
,,,-6.89600009e-007,      0.0102
,,,-6.88000009e-007,      0.0112
,,,-6.86400009e-007,      0.0116
,,,-6.84800009e-007,       0.012
,,,-6.83200009e-007,      0.0118
,,,-6.81600009e-007,      0.0118
,,,-6.80000009e-007,      0.0122
,,,-6.78400009e-007,      0.0124
,,,-6.76800009e-007,       0.012
,,,-6.75200009e-007,      0.0122
,,,-6.73600009e-007,      0.0116
,,,-6.72000009e-007,      0.0114
,,,-6.70400009e-007,      0.0112
,,,-6.68800009e-007,       0.011
,,,-6.67200009e-007,      0.0106
,,,-6.65600009e-007,      0.0104
,,,-6.64000009e-007,      0.0096
,,,-6.62400009e-007,      0.0098
,,,-6.60800009e-007,        0.01
,,,-6.59200009e-007,      0.0108
,,,-6.57600009e-007,      0.0106
,,,-6.56000009e-007,      0.0108
,,,-6.54400009e-007,      0.0114
,,,-6.52800009e-007,      0.0124
,,,-6.51200009e-007,      0.0124
,,,-6.49600009e-007,      0.0126
,,,-6.48000009e-007,       0.013
,,,-6.46400009e-007,       0.013
,,,-6.44800009e-007,      0.0132
,,,-6.43200009e-007,       0.013
,,,-6.41600009e-007,       0.013
,,,-6.40000009e-007,       0.013
,,,-6.38400009e-007,      0.0122
,,,-6.36800009e-007,      0.0122
,,,-6.35200008e-007,      0.0116
,,,-6.33600008e-007,       0.012
,,,-6.32000008e-007,      0.0124
,,,-6.30400008e-007,      0.0116
,,,-6.28800008e-007,      0.0116
,,,-6.27200008e-007,      0.0116
,,,-6.25600008e-007,      0.0116
,,,-6.24000008e-007,      0.0116
,,,-6.22400008e-007,      0.0124
,,,-6.20800008e-007,      0.0126
,,,-6.19200008e-007,      0.0128
,,,-6.17600008e-007,       0.013
,,,-6.16000008e-007,      0.0134
,,,-6.14400008e-007,      0.0134
,,,-6.12800008e-007,      0.0136
,,,-6.11200008e-007,       0.014
,,,-6.09600008e-007,      0.0144
,,,-6.08000008e-007,      0.0136
,,,-6.06400008e-007,      0.0132
,,,-6.04800008e-007,      0.0134
,,,-6.03200008e-007,      0.0136
,,,-6.01600008e-007,      0.0132
,,,-6.00000008e-007,       0.013
,,,-5.98400008e-007,      0.0128
,,,-5.96800008e-007,       0.013
,,,-5.95200008e-007,      0.0128
,,,-5.93600008e-007,       0.013
,,,-5.92000008e-007,      0.0134
,,,-5.90400008e-007,      0.0132
,,,-5.88800008e-007,      0.0134
,,,-5.87200008e-007,      0.0138
,,,-5.85600008e-007,      0.0136
,,,-5.84000008e-007,      0.0142
,,,-5.82400008e-007,       0.014
,,,-5.80800008e-007,      0.0146
,,,-5.79200008e-007,      0.0138
,,,-5.77600008e-007,      0.0144
,,,-5.76000008e-007,      0.0138
,,,-5.74400008e-007,      0.0144
,,,-5.72800008e-007,      0.0142
,,,-5.71200008e-007,       0.014
,,,-5.69600008e-007,      0.0138
,,,-5.68000008e-007,      0.0138
,,,-5.66400008e-007,      0.0136
,,,-5.64800008e-007,      0.0138
,,,-5.63200008e-007,       0.014
,,,-5.61600007e-007,      0.0134
,,,-5.60000007e-007,      0.0136
,,,-5.58400007e-007,       0.014
,,,-5.56800007e-007,      0.0138
,,,-5.55200007e-007,       0.014
,,,-5.53600007e-007,      0.0144
,,,-5.52000007e-007,      0.0138
,,,-5.50400007e-007,       0.014
,,,-5.48800007e-007,      0.0142
,,,-5.47200007e-007,      0.0138
,,,-5.45600007e-007,       0.014
,,,-5.44000007e-007,      0.0138
,,,-5.42400007e-007,       0.014
,,,-5.40800007e-007,       0.014
,,,-5.39200007e-007,      0.0138
,,,-5.37600007e-007,      0.0136
,,,-5.36000007e-007,       0.014
,,,-5.34400007e-007,       0.014
,,,-5.32800007e-007,      0.0144
,,,-5.31200007e-007,      0.0146
,,,-5.29600007e-007,      0.0142
,,,-5.28000007e-007,      0.0144
,,,-5.26400007e-007,      0.0144
,,,-5.24800007e-007,       0.015
,,,-5.23200007e-007,      0.0146
,,,-5.21600007e-007,      0.0146
,,,-5.20000007e-007,      0.0154
,,,-5.18400007e-007,      0.0152
,,,-5.16800007e-007,      0.0148
,,,-5.15200007e-007,      0.0148
,,,-5.13600007e-007,      0.0148
,,,-5.12000007e-007,      0.0144
,,,-5.10400007e-007,      0.0142
,,,-5.08800007e-007,      0.0142
,,,-5.07200007e-007,      0.0142
,,,-5.05600007e-007,      0.0142
,,,-5.04000007e-007,      0.0142
,,,-5.02400007e-007,      0.0146
,,,-5.00800007e-007,      0.0146
,,,-4.99200007e-007,       0.015
,,,-4.97600007e-007,      0.0146
,,,-4.96000007e-007,      0.0152
,,,-4.94400007e-007,      0.0154
,,,-4.92800007e-007,      0.0156
,,,-4.91200007e-007,      0.0154
,,,-4.89600007e-007,      0.0152
,,,-4.88000007e-007,      0.0158
,,,-4.86400006e-007,       0.015
,,,-4.84800006e-007,      0.0154
,,,-4.83200006e-007,      0.0152
,,,-4.81600006e-007,      0.0154
,,,-4.80000006e-007,      0.0152
,,,-4.78400006e-007,      0.0152
,,,-4.76800006e-007,       0.015
,,,-4.75200006e-007,       0.015
,,,-4.73600006e-007,      0.0146
,,,-4.72000006e-007,      0.0152
,,,-4.70400006e-007,      0.0152
,,,-4.68800006e-007,      0.0152
,,,-4.67200006e-007,      0.0154
,,,-4.65600006e-007,      0.0158
,,,-4.64000006e-007,      0.0156
,,,-4.62400006e-007,      0.0158
,,,-4.60800006e-007,      0.0164
,,,-4.59200006e-007,      0.0168
,,,-4.57600006e-007,      0.0168
,,,-4.56000006e-007,       0.017
,,,-4.54400006e-007,      0.0168
,,,-4.52800006e-007,      0.0168
,,,-4.51200006e-007,      0.0168
,,,-4.49600006e-007,      0.0162
,,,-4.48000006e-007,      0.0162
,,,-4.46400006e-007,       0.016
,,,-4.44800006e-007,       0.016
,,,-4.43200006e-007,      0.0158
,,,-4.41600006e-007,      0.0158
,,,-4.40000006e-007,      0.0156
,,,-4.38400006e-007,      0.0152
,,,-4.36800006e-007,      0.0156
,,,-4.35200006e-007,      0.0162
,,,-4.33600006e-007,      0.0162
,,,-4.32000006e-007,      0.0162
,,,-4.30400006e-007,      0.0164
,,,-4.28800006e-007,      0.0166
